^C:\USERS\ДАРЬЯ\DOCUMENTS\MUL_OF_LONGNUMBERS\TESTS\STDAFX.CPP
C:\PROGRAM FILES\MICROSOFT VISUAL STUDIO 10.0\VC\BIN\1049\CLUI.DLL
C:\WINDOWS\GLOBALIZATION\SORTING\SORTDEFAULT.NLS
C:\WINDOWS\SYSTEM32\RSAENH.DLL
C:\WINDOWS\SYSTEM32\TZRES.DLL
C:\PROGRAM FILES\MICROSOFT VISUAL STUDIO 10.0\COMMON7\IDE\MSPDBSRV.EXE
C:\USERS\дарья\DOCUMENTS\MUL_OF_LONGNUMBERS\TESTS\STDAFX.H
C:\USERS\дарья\DOCUMENTS\MUL_OF_LONGNUMBERS\TESTS\TARGETVER.H
C:\PROGRAM FILES\MICROSOFT SDKS\WINDOWS\V7.0A\INCLUDE\SDKDDKVER.H
C:\PROGRAM FILES\MICROSOFT VISUAL STUDIO 10.0\VC\INCLUDE\STDIO.H
C:\PROGRAM FILES\MICROSOFT VISUAL STUDIO 10.0\VC\INCLUDE\CRTDEFS.H
C:\PROGRAM FILES\MICROSOFT VISUAL STUDIO 10.0\VC\INCLUDE\SAL.H
C:\PROGRAM FILES\MICROSOFT VISUAL STUDIO 10.0\VC\INCLUDE\CODEANALYSIS\SOURCEANNOTATIONS.H
C:\PROGRAM FILES\MICROSOFT VISUAL STUDIO 10.0\VC\INCLUDE\VADEFS.H
C:\PROGRAM FILES\MICROSOFT VISUAL STUDIO 10.0\VC\INCLUDE\SWPRINTF.INL
C:\PROGRAM FILES\MICROSOFT VISUAL STUDIO 10.0\VC\INCLUDE\TCHAR.H
C:\PROGRAM FILES\MICROSOFT VISUAL STUDIO 10.0\VC\INCLUDE\STRING.H
^C:\USERS\ДАРЬЯ\DOCUMENTS\MUL_OF_LONGNUMBERS\TESTS\MAINTEST.CPP
C:\PROGRAM FILES\MICROSOFT VISUAL STUDIO 10.0\VC\BIN\1049\CLUI.DLL
C:\WINDOWS\GLOBALIZATION\SORTING\SORTDEFAULT.NLS
C:\WINDOWS\SYSTEM32\RSAENH.DLL
C:\WINDOWS\SYSTEM32\TZRES.DLL
D:\BOOST_1_57_0\BOOST\TEST\UNIT_TEST.HPP
D:\BOOST_1_57_0\BOOST\TEST\TEST_TOOLS.HPP
D:\BOOST_1_57_0\BOOST\TEST\PREDICATE_RESULT.HPP
D:\BOOST_1_57_0\BOOST\TEST\UTILS\CLASS_PROPERTIES.HPP
D:\BOOST_1_57_0\BOOST\TEST\DETAIL\CONFIG.HPP
D:\BOOST_1_57_0\BOOST\CONFIG.HPP
D:\BOOST_1_57_0\BOOST\CONFIG\USER.HPP
D:\BOOST_1_57_0\BOOST\CONFIG\SELECT_COMPILER_CONFIG.HPP
D:\BOOST_1_57_0\BOOST\CONFIG\COMPILER\VISUALC.HPP
D:\BOOST_1_57_0\BOOST\CONFIG\SELECT_STDLIB_CONFIG.HPP
C:\PROGRAM FILES\MICROSOFT VISUAL STUDIO 10.0\VC\INCLUDE\CSTDDEF
C:\PROGRAM FILES\MICROSOFT VISUAL STUDIO 10.0\VC\INCLUDE\YVALS.H
C:\PROGRAM FILES\MICROSOFT VISUAL STUDIO 10.0\VC\INCLUDE\CRTDEFS.H
C:\PROGRAM FILES\MICROSOFT VISUAL STUDIO 10.0\VC\INCLUDE\SAL.H
C:\PROGRAM FILES\MICROSOFT VISUAL STUDIO 10.0\VC\INCLUDE\CODEANALYSIS\SOURCEANNOTATIONS.H
C:\PROGRAM FILES\MICROSOFT VISUAL STUDIO 10.0\VC\INCLUDE\VADEFS.H
C:\PROGRAM FILES\MICROSOFT VISUAL STUDIO 10.0\VC\INCLUDE\USE_ANSI.H
C:\PROGRAM FILES\MICROSOFT VISUAL STUDIO 10.0\VC\INCLUDE\STDDEF.H
D:\BOOST_1_57_0\BOOST\CONFIG\STDLIB\DINKUMWARE.HPP
C:\PROGRAM FILES\MICROSOFT VISUAL STUDIO 10.0\VC\INCLUDE\TYPEINFO
C:\PROGRAM FILES\MICROSOFT VISUAL STUDIO 10.0\VC\INCLUDE\XSTDDEF
C:\PROGRAM FILES\MICROSOFT VISUAL STUDIO 10.0\VC\INCLUDE\STRING.H
C:\PROGRAM FILES\MICROSOFT VISUAL STUDIO 10.0\VC\INCLUDE\EXCEPTION
C:\PROGRAM FILES\MICROSOFT VISUAL STUDIO 10.0\VC\INCLUDE\EH.H
C:\PROGRAM FILES\MICROSOFT VISUAL STUDIO 10.0\VC\INCLUDE\MALLOC.H
D:\BOOST_1_57_0\BOOST\CONFIG\SELECT_PLATFORM_CONFIG.HPP
D:\BOOST_1_57_0\BOOST\CONFIG\PLATFORM\WIN32.HPP
D:\BOOST_1_57_0\BOOST\CONFIG\SUFFIX.HPP
D:\BOOST_1_57_0\BOOST\DETAIL\WORKAROUND.HPP
D:\BOOST_1_57_0\BOOST\PREPROCESSOR\SEQ\FOR_EACH.HPP
D:\BOOST_1_57_0\BOOST\PREPROCESSOR\ARITHMETIC\DEC.HPP
D:\BOOST_1_57_0\BOOST\PREPROCESSOR\CONFIG\CONFIG.HPP
D:\BOOST_1_57_0\BOOST\PREPROCESSOR\REPETITION\FOR.HPP
D:\BOOST_1_57_0\BOOST\PREPROCESSOR\CAT.HPP
D:\BOOST_1_57_0\BOOST\PREPROCESSOR\DEBUG\ERROR.HPP
D:\BOOST_1_57_0\BOOST\PREPROCESSOR\DETAIL\AUTO_REC.HPP
D:\BOOST_1_57_0\BOOST\PREPROCESSOR\CONTROL\IIF.HPP
D:\BOOST_1_57_0\BOOST\PREPROCESSOR\REPETITION\DETAIL\MSVC\FOR.HPP
D:\BOOST_1_57_0\BOOST\PREPROCESSOR\CONTROL\IF.HPP
D:\BOOST_1_57_0\BOOST\PREPROCESSOR\LOGICAL\BOOL.HPP
D:\BOOST_1_57_0\BOOST\PREPROCESSOR\TUPLE\EAT.HPP
D:\BOOST_1_57_0\BOOST\PREPROCESSOR\SEQ\SEQ.HPP
D:\BOOST_1_57_0\BOOST\PREPROCESSOR\SEQ\ELEM.HPP
D:\BOOST_1_57_0\BOOST\PREPROCESSOR\FACILITIES\EMPTY.HPP
D:\BOOST_1_57_0\BOOST\PREPROCESSOR\SEQ\SIZE.HPP
D:\BOOST_1_57_0\BOOST\PREPROCESSOR\TUPLE\ELEM.HPP
D:\BOOST_1_57_0\BOOST\PREPROCESSOR\FACILITIES\EXPAND.HPP
D:\BOOST_1_57_0\BOOST\PREPROCESSOR\FACILITIES\OVERLOAD.HPP
D:\BOOST_1_57_0\BOOST\PREPROCESSOR\VARIADIC\SIZE.HPP
D:\BOOST_1_57_0\BOOST\PREPROCESSOR\TUPLE\REM.HPP
D:\BOOST_1_57_0\BOOST\PREPROCESSOR\TUPLE\DETAIL\IS_SINGLE_RETURN.HPP
D:\BOOST_1_57_0\BOOST\PREPROCESSOR\FACILITIES\IS_1.HPP
D:\BOOST_1_57_0\BOOST\PREPROCESSOR\FACILITIES\IS_EMPTY.HPP
D:\BOOST_1_57_0\BOOST\PREPROCESSOR\FACILITIES\IS_EMPTY_VARIADIC.HPP
D:\BOOST_1_57_0\BOOST\PREPROCESSOR\PUNCTUATION\IS_BEGIN_PARENS.HPP
D:\BOOST_1_57_0\BOOST\PREPROCESSOR\PUNCTUATION\DETAIL\IS_BEGIN_PARENS.HPP
D:\BOOST_1_57_0\BOOST\PREPROCESSOR\FACILITIES\DETAIL\IS_EMPTY.HPP
D:\BOOST_1_57_0\BOOST\PREPROCESSOR\TUPLE\SIZE.HPP
D:\BOOST_1_57_0\BOOST\PREPROCESSOR\VARIADIC\ELEM.HPP
D:\BOOST_1_57_0\BOOST\CALL_TRAITS.HPP
D:\BOOST_1_57_0\BOOST\DETAIL\CALL_TRAITS.HPP
D:\BOOST_1_57_0\BOOST\TYPE_TRAITS\IS_ARITHMETIC.HPP
D:\BOOST_1_57_0\BOOST\TYPE_TRAITS\IS_INTEGRAL.HPP
D:\BOOST_1_57_0\BOOST\TYPE_TRAITS\DETAIL\BOOL_TRAIT_DEF.HPP
D:\BOOST_1_57_0\BOOST\TYPE_TRAITS\DETAIL\TEMPLATE_ARITY_SPEC.HPP
D:\BOOST_1_57_0\BOOST\MPL\INT.HPP
D:\BOOST_1_57_0\BOOST\MPL\INT_FWD.HPP
D:\BOOST_1_57_0\BOOST\MPL\AUX_\ADL_BARRIER.HPP
D:\BOOST_1_57_0\BOOST\MPL\AUX_\CONFIG\ADL.HPP
D:\BOOST_1_57_0\BOOST\MPL\AUX_\CONFIG\MSVC.HPP
D:\BOOST_1_57_0\BOOST\MPL\AUX_\CONFIG\INTEL.HPP
D:\BOOST_1_57_0\BOOST\MPL\AUX_\CONFIG\GCC.HPP
D:\BOOST_1_57_0\BOOST\MPL\AUX_\CONFIG\WORKAROUND.HPP
D:\BOOST_1_57_0\BOOST\MPL\AUX_\NTTP_DECL.HPP
D:\BOOST_1_57_0\BOOST\MPL\AUX_\CONFIG\NTTP.HPP
D:\BOOST_1_57_0\BOOST\MPL\AUX_\INTEGRAL_WRAPPER.HPP
D:\BOOST_1_57_0\BOOST\MPL\INTEGRAL_C_TAG.HPP
D:\BOOST_1_57_0\BOOST\MPL\AUX_\CONFIG\STATIC_CONSTANT.HPP
D:\BOOST_1_57_0\BOOST\MPL\AUX_\STATIC_CAST.HPP
D:\BOOST_1_57_0\BOOST\MPL\AUX_\TEMPLATE_ARITY_FWD.HPP
D:\BOOST_1_57_0\BOOST\MPL\AUX_\PREPROCESSOR\PARAMS.HPP
D:\BOOST_1_57_0\BOOST\MPL\AUX_\CONFIG\PREPROCESSOR.HPP
D:\BOOST_1_57_0\BOOST\PREPROCESSOR\COMMA_IF.HPP
D:\BOOST_1_57_0\BOOST\PREPROCESSOR\PUNCTUATION\COMMA_IF.HPP
D:\BOOST_1_57_0\BOOST\PREPROCESSOR\PUNCTUATION\COMMA.HPP
D:\BOOST_1_57_0\BOOST\PREPROCESSOR\REPEAT.HPP
D:\BOOST_1_57_0\BOOST\PREPROCESSOR\REPETITION\REPEAT.HPP
D:\BOOST_1_57_0\BOOST\PREPROCESSOR\INC.HPP
D:\BOOST_1_57_0\BOOST\PREPROCESSOR\ARITHMETIC\INC.HPP
D:\BOOST_1_57_0\BOOST\MPL\AUX_\CONFIG\LAMBDA.HPP
D:\BOOST_1_57_0\BOOST\MPL\AUX_\CONFIG\TTP.HPP
D:\BOOST_1_57_0\BOOST\MPL\AUX_\CONFIG\CTPS.HPP
D:\BOOST_1_57_0\BOOST\MPL\AUX_\CONFIG\OVERLOAD_RESOLUTION.HPP
D:\BOOST_1_57_0\BOOST\TYPE_TRAITS\INTEGRAL_CONSTANT.HPP
D:\BOOST_1_57_0\BOOST\MPL\BOOL.HPP
D:\BOOST_1_57_0\BOOST\MPL\BOOL_FWD.HPP
D:\BOOST_1_57_0\BOOST\MPL\INTEGRAL_C.HPP
D:\BOOST_1_57_0\BOOST\MPL\INTEGRAL_C_FWD.HPP
D:\BOOST_1_57_0\BOOST\MPL\AUX_\LAMBDA_SUPPORT.HPP
D:\BOOST_1_57_0\BOOST\TYPE_TRAITS\DETAIL\BOOL_TRAIT_UNDEF.HPP
D:\BOOST_1_57_0\BOOST\TYPE_TRAITS\IS_FLOAT.HPP
D:\BOOST_1_57_0\BOOST\TYPE_TRAITS\DETAIL\ICE_OR.HPP
D:\BOOST_1_57_0\BOOST\TYPE_TRAITS\IS_ENUM.HPP
D:\BOOST_1_57_0\BOOST\TYPE_TRAITS\INTRINSICS.HPP
D:\BOOST_1_57_0\BOOST\TYPE_TRAITS\CONFIG.HPP
D:\BOOST_1_57_0\BOOST\TYPE_TRAITS\IS_SAME.HPP
D:\BOOST_1_57_0\BOOST\TYPE_TRAITS\IS_FUNCTION.HPP
D:\BOOST_1_57_0\BOOST\TYPE_TRAITS\IS_REFERENCE.HPP
D:\BOOST_1_57_0\BOOST\TYPE_TRAITS\IS_LVALUE_REFERENCE.HPP
D:\BOOST_1_57_0\BOOST\TYPE_TRAITS\IS_RVALUE_REFERENCE.HPP
D:\BOOST_1_57_0\BOOST\TYPE_TRAITS\ICE.HPP
D:\BOOST_1_57_0\BOOST\TYPE_TRAITS\DETAIL\YES_NO_TYPE.HPP
D:\BOOST_1_57_0\BOOST\TYPE_TRAITS\DETAIL\ICE_AND.HPP
D:\BOOST_1_57_0\BOOST\TYPE_TRAITS\DETAIL\ICE_NOT.HPP
D:\BOOST_1_57_0\BOOST\TYPE_TRAITS\DETAIL\ICE_EQ.HPP
D:\BOOST_1_57_0\BOOST\TYPE_TRAITS\DETAIL\FALSE_RESULT.HPP
D:\BOOST_1_57_0\BOOST\TYPE_TRAITS\DETAIL\IS_FUNCTION_PTR_TESTER.HPP
D:\BOOST_1_57_0\BOOST\TYPE_TRAITS\IS_POINTER.HPP
D:\BOOST_1_57_0\BOOST\TYPE_TRAITS\IS_MEMBER_POINTER.HPP
D:\BOOST_1_57_0\BOOST\TYPE_TRAITS\IS_MEMBER_FUNCTION_POINTER.HPP
D:\BOOST_1_57_0\BOOST\TYPE_TRAITS\IS_ARRAY.HPP
D:\BOOST_1_57_0\BOOST\TYPE_TRAITS\DETAIL\IS_MEM_FUN_POINTER_TESTER.HPP
D:\BOOST_1_57_0\BOOST\TYPE_TRAITS\REMOVE_CV.HPP
D:\BOOST_1_57_0\BOOST\TYPE_TRAITS\DETAIL\CV_TRAITS_IMPL.HPP
D:\BOOST_1_57_0\BOOST\TYPE_TRAITS\DETAIL\TYPE_TRAIT_DEF.HPP
D:\BOOST_1_57_0\BOOST\TYPE_TRAITS\DETAIL\TYPE_TRAIT_UNDEF.HPP
D:\BOOST_1_57_0\BOOST\TYPE_TRAITS\ADD_POINTER.HPP
D:\BOOST_1_57_0\BOOST\TYPE_TRAITS\REMOVE_REFERENCE.HPP
D:\BOOST_1_57_0\BOOST\TYPE_TRAITS\ADD_CONST.HPP
D:\BOOST_1_57_0\BOOST\UTILITY\ADDRESSOF.HPP
D:\BOOST_1_57_0\BOOST\CORE\ADDRESSOF.HPP
C:\PROGRAM FILES\MICROSOFT VISUAL STUDIO 10.0\VC\INCLUDE\IOSFWD
C:\PROGRAM FILES\MICROSOFT VISUAL STUDIO 10.0\VC\INCLUDE\CSTDIO
C:\PROGRAM FILES\MICROSOFT VISUAL STUDIO 10.0\VC\INCLUDE\STDIO.H
C:\PROGRAM FILES\MICROSOFT VISUAL STUDIO 10.0\VC\INCLUDE\SWPRINTF.INL
C:\PROGRAM FILES\MICROSOFT VISUAL STUDIO 10.0\VC\INCLUDE\CSTRING
C:\PROGRAM FILES\MICROSOFT VISUAL STUDIO 10.0\VC\INCLUDE\CWCHAR
C:\PROGRAM FILES\MICROSOFT VISUAL STUDIO 10.0\VC\INCLUDE\WCHAR.H
C:\PROGRAM FILES\MICROSOFT VISUAL STUDIO 10.0\VC\INCLUDE\WTIME.INL
C:\PROGRAM FILES\MICROSOFT VISUAL STUDIO 10.0\VC\INCLUDE\CRTDBG.H
D:\BOOST_1_57_0\BOOST\TEST\DETAIL\SUPPRESS_WARNINGS.HPP
D:\BOOST_1_57_0\BOOST\TEST\DETAIL\ENABLE_WARNINGS.HPP
D:\BOOST_1_57_0\BOOST\TEST\UTILS\WRAP_STRINGSTREAM.HPP
C:\PROGRAM FILES\MICROSOFT VISUAL STUDIO 10.0\VC\INCLUDE\SSTREAM
C:\PROGRAM FILES\MICROSOFT VISUAL STUDIO 10.0\VC\INCLUDE\STRING
C:\PROGRAM FILES\MICROSOFT VISUAL STUDIO 10.0\VC\INCLUDE\ISTREAM
C:\PROGRAM FILES\MICROSOFT VISUAL STUDIO 10.0\VC\INCLUDE\OSTREAM
C:\PROGRAM FILES\MICROSOFT VISUAL STUDIO 10.0\VC\INCLUDE\IOS
C:\PROGRAM FILES\MICROSOFT VISUAL STUDIO 10.0\VC\INCLUDE\XLOCNUM
C:\PROGRAM FILES\MICROSOFT VISUAL STUDIO 10.0\VC\INCLUDE\CLIMITS
C:\PROGRAM FILES\MICROSOFT VISUAL STUDIO 10.0\VC\INCLUDE\LIMITS.H
C:\PROGRAM FILES\MICROSOFT VISUAL STUDIO 10.0\VC\INCLUDE\CMATH
C:\PROGRAM FILES\MICROSOFT VISUAL STUDIO 10.0\VC\INCLUDE\MATH.H
C:\PROGRAM FILES\MICROSOFT VISUAL STUDIO 10.0\VC\INCLUDE\CSTDLIB
C:\PROGRAM FILES\MICROSOFT VISUAL STUDIO 10.0\VC\INCLUDE\STDLIB.H
C:\PROGRAM FILES\MICROSOFT VISUAL STUDIO 10.0\VC\INCLUDE\STREAMBUF
C:\PROGRAM FILES\MICROSOFT VISUAL STUDIO 10.0\VC\INCLUDE\XIOSBASE
C:\PROGRAM FILES\MICROSOFT VISUAL STUDIO 10.0\VC\INCLUDE\XLOCALE
C:\PROGRAM FILES\MICROSOFT VISUAL STUDIO 10.0\VC\INCLUDE\STDEXCEPT
C:\PROGRAM FILES\MICROSOFT VISUAL STUDIO 10.0\VC\INCLUDE\XSTRING
C:\PROGRAM FILES\MICROSOFT VISUAL STUDIO 10.0\VC\INCLUDE\XMEMORY
C:\PROGRAM FILES\MICROSOFT VISUAL STUDIO 10.0\VC\INCLUDE\NEW
C:\PROGRAM FILES\MICROSOFT VISUAL STUDIO 10.0\VC\INCLUDE\XUTILITY
C:\PROGRAM FILES\MICROSOFT VISUAL STUDIO 10.0\VC\INCLUDE\UTILITY
C:\PROGRAM FILES\MICROSOFT VISUAL STUDIO 10.0\VC\INCLUDE\TYPE_TRAITS
C:\PROGRAM FILES\MICROSOFT VISUAL STUDIO 10.0\VC\INCLUDE\LIMITS
C:\PROGRAM FILES\MICROSOFT VISUAL STUDIO 10.0\VC\INCLUDE\YMATH.H
C:\PROGRAM FILES\MICROSOFT VISUAL STUDIO 10.0\VC\INCLUDE\CFLOAT
C:\PROGRAM FILES\MICROSOFT VISUAL STUDIO 10.0\VC\INCLUDE\FLOAT.H
C:\PROGRAM FILES\MICROSOFT VISUAL STUDIO 10.0\VC\INCLUDE\CRTWRN.H
C:\PROGRAM FILES\MICROSOFT VISUAL STUDIO 10.0\VC\INCLUDE\XTR1COMMON
C:\PROGRAM FILES\MICROSOFT VISUAL STUDIO 10.0\VC\INCLUDE\XFWRAP
C:\PROGRAM FILES\MICROSOFT VISUAL STUDIO 10.0\VC\INCLUDE\XFWRAP1
C:\PROGRAM FILES\MICROSOFT VISUAL STUDIO 10.0\VC\INCLUDE\XXTYPE_TRAITS
C:\PROGRAM FILES\MICROSOFT VISUAL STUDIO 10.0\VC\INCLUDE\XLOCINFO
C:\PROGRAM FILES\MICROSOFT VISUAL STUDIO 10.0\VC\INCLUDE\XLOCINFO.H
C:\PROGRAM FILES\MICROSOFT VISUAL STUDIO 10.0\VC\INCLUDE\CTYPE.H
C:\PROGRAM FILES\MICROSOFT VISUAL STUDIO 10.0\VC\INCLUDE\LOCALE.H
C:\PROGRAM FILES\MICROSOFT VISUAL STUDIO 10.0\VC\INCLUDE\XDEBUG
C:\PROGRAM FILES\MICROSOFT VISUAL STUDIO 10.0\VC\INCLUDE\SYSTEM_ERROR
C:\PROGRAM FILES\MICROSOFT VISUAL STUDIO 10.0\VC\INCLUDE\CERRNO
C:\PROGRAM FILES\MICROSOFT VISUAL STUDIO 10.0\VC\INCLUDE\ERRNO.H
C:\PROGRAM FILES\MICROSOFT VISUAL STUDIO 10.0\VC\INCLUDE\SHARE.H
D:\BOOST_1_57_0\BOOST\TEST\UTILS\BASIC_CSTRING\BASIC_CSTRING.HPP
D:\BOOST_1_57_0\BOOST\TEST\UTILS\BASIC_CSTRING\BASIC_CSTRING_FWD.HPP
D:\BOOST_1_57_0\BOOST\TEST\UTILS\BASIC_CSTRING\BCS_CHAR_TRAITS.HPP
D:\BOOST_1_57_0\BOOST\SHARED_PTR.HPP
D:\BOOST_1_57_0\BOOST\SMART_PTR\SHARED_PTR.HPP
D:\BOOST_1_57_0\BOOST\CONFIG\NO_TR1\MEMORY.HPP
C:\PROGRAM FILES\MICROSOFT VISUAL STUDIO 10.0\VC\INCLUDE\MEMORY
C:\PROGRAM FILES\MICROSOFT VISUAL STUDIO 10.0\VC\INCLUDE\INTRIN.H
C:\PROGRAM FILES\MICROSOFT VISUAL STUDIO 10.0\VC\INCLUDE\SETJMP.H
C:\PROGRAM FILES\MICROSOFT VISUAL STUDIO 10.0\VC\INCLUDE\IMMINTRIN.H
C:\PROGRAM FILES\MICROSOFT VISUAL STUDIO 10.0\VC\INCLUDE\WMMINTRIN.H
C:\PROGRAM FILES\MICROSOFT VISUAL STUDIO 10.0\VC\INCLUDE\NMMINTRIN.H
C:\PROGRAM FILES\MICROSOFT VISUAL STUDIO 10.0\VC\INCLUDE\SMMINTRIN.H
C:\PROGRAM FILES\MICROSOFT VISUAL STUDIO 10.0\VC\INCLUDE\TMMINTRIN.H
C:\PROGRAM FILES\MICROSOFT VISUAL STUDIO 10.0\VC\INCLUDE\PMMINTRIN.H
C:\PROGRAM FILES\MICROSOFT VISUAL STUDIO 10.0\VC\INCLUDE\EMMINTRIN.H
C:\PROGRAM FILES\MICROSOFT VISUAL STUDIO 10.0\VC\INCLUDE\XMMINTRIN.H
C:\PROGRAM FILES\MICROSOFT VISUAL STUDIO 10.0\VC\INCLUDE\MMINTRIN.H
C:\PROGRAM FILES\MICROSOFT VISUAL STUDIO 10.0\VC\INCLUDE\MM3DNOW.H
C:\PROGRAM FILES\MICROSOFT VISUAL STUDIO 10.0\VC\INCLUDE\XXSHARED
D:\BOOST_1_57_0\BOOST\ASSERT.HPP
C:\PROGRAM FILES\MICROSOFT VISUAL STUDIO 10.0\VC\INCLUDE\ASSERT.H
D:\BOOST_1_57_0\BOOST\CHECKED_DELETE.HPP
D:\BOOST_1_57_0\BOOST\CORE\CHECKED_DELETE.HPP
D:\BOOST_1_57_0\BOOST\THROW_EXCEPTION.HPP
D:\BOOST_1_57_0\BOOST\EXCEPTION\EXCEPTION.HPP
D:\BOOST_1_57_0\BOOST\CURRENT_FUNCTION.HPP
D:\BOOST_1_57_0\BOOST\SMART_PTR\DETAIL\SHARED_COUNT.HPP
D:\BOOST_1_57_0\BOOST\SMART_PTR\BAD_WEAK_PTR.HPP
D:\BOOST_1_57_0\BOOST\SMART_PTR\DETAIL\SP_COUNTED_BASE.HPP
D:\BOOST_1_57_0\BOOST\SMART_PTR\DETAIL\SP_HAS_SYNC.HPP
D:\BOOST_1_57_0\BOOST\SMART_PTR\DETAIL\SP_COUNTED_BASE_W32.HPP
D:\BOOST_1_57_0\BOOST\SMART_PTR\DETAIL\SP_INTERLOCKED.HPP
D:\BOOST_1_57_0\BOOST\DETAIL\SP_TYPEINFO.HPP
D:\BOOST_1_57_0\BOOST\CORE\TYPEINFO.HPP
D:\BOOST_1_57_0\BOOST\CORE\DEMANGLE.HPP
D:\BOOST_1_57_0\BOOST\SMART_PTR\DETAIL\SP_COUNTED_IMPL.HPP
C:\PROGRAM FILES\MICROSOFT VISUAL STUDIO 10.0\VC\INCLUDE\FUNCTIONAL
C:\PROGRAM FILES\MICROSOFT VISUAL STUDIO 10.0\VC\INCLUDE\XFUNCTIONAL
C:\PROGRAM FILES\MICROSOFT VISUAL STUDIO 10.0\VC\INCLUDE\XREFWRAP
C:\PROGRAM FILES\MICROSOFT VISUAL STUDIO 10.0\VC\INCLUDE\XXRESULT
C:\PROGRAM FILES\MICROSOFT VISUAL STUDIO 10.0\VC\INCLUDE\XXCALLOBJ
C:\PROGRAM FILES\MICROSOFT VISUAL STUDIO 10.0\VC\INCLUDE\XXPMFCALLER
C:\PROGRAM FILES\MICROSOFT VISUAL STUDIO 10.0\VC\INCLUDE\XXCALLPMF
C:\PROGRAM FILES\MICROSOFT VISUAL STUDIO 10.0\VC\INCLUDE\XXCALLFUN
C:\PROGRAM FILES\MICROSOFT VISUAL STUDIO 10.0\VC\INCLUDE\XAWRAP
C:\PROGRAM FILES\MICROSOFT VISUAL STUDIO 10.0\VC\INCLUDE\XXCALLWRAP
C:\PROGRAM FILES\MICROSOFT VISUAL STUDIO 10.0\VC\INCLUDE\XXREFWRAP
C:\PROGRAM FILES\MICROSOFT VISUAL STUDIO 10.0\VC\INCLUDE\XXMEM_FN
C:\PROGRAM FILES\MICROSOFT VISUAL STUDIO 10.0\VC\INCLUDE\XXFUNCTION
C:\PROGRAM FILES\MICROSOFT VISUAL STUDIO 10.0\VC\INCLUDE\XXBIND0
C:\PROGRAM FILES\MICROSOFT VISUAL STUDIO 10.0\VC\INCLUDE\XXBIND1
D:\BOOST_1_57_0\BOOST\SMART_PTR\DETAIL\SP_CONVERTIBLE.HPP
D:\BOOST_1_57_0\BOOST\SMART_PTR\DETAIL\SP_NULLPTR_T.HPP
D:\BOOST_1_57_0\BOOST\SMART_PTR\DETAIL\SPINLOCK_POOL.HPP
D:\BOOST_1_57_0\BOOST\SMART_PTR\DETAIL\SPINLOCK.HPP
D:\BOOST_1_57_0\BOOST\SMART_PTR\DETAIL\SPINLOCK_W32.HPP
D:\BOOST_1_57_0\BOOST\SMART_PTR\DETAIL\YIELD_K.HPP
D:\BOOST_1_57_0\BOOST\PREDEF.H
D:\BOOST_1_57_0\BOOST\PREDEF\LANGUAGE.H
D:\BOOST_1_57_0\BOOST\PREDEF\LANGUAGE\STDC.H
D:\BOOST_1_57_0\BOOST\PREDEF\VERSION_NUMBER.H
D:\BOOST_1_57_0\BOOST\PREDEF\MAKE.H
D:\BOOST_1_57_0\BOOST\PREDEF\DETAIL\TEST.H
D:\BOOST_1_57_0\BOOST\PREDEF\LANGUAGE\STDCPP.H
D:\BOOST_1_57_0\BOOST\PREDEF\LANGUAGE\OBJC.H
D:\BOOST_1_57_0\BOOST\PREDEF\ARCHITECTURE.H
D:\BOOST_1_57_0\BOOST\PREDEF\ARCHITECTURE\ALPHA.H
D:\BOOST_1_57_0\BOOST\PREDEF\ARCHITECTURE\ARM.H
D:\BOOST_1_57_0\BOOST\PREDEF\ARCHITECTURE\BLACKFIN.H
D:\BOOST_1_57_0\BOOST\PREDEF\ARCHITECTURE\CONVEX.H
D:\BOOST_1_57_0\BOOST\PREDEF\ARCHITECTURE\IA64.H
D:\BOOST_1_57_0\BOOST\PREDEF\ARCHITECTURE\M68K.H
D:\BOOST_1_57_0\BOOST\PREDEF\ARCHITECTURE\MIPS.H
D:\BOOST_1_57_0\BOOST\PREDEF\ARCHITECTURE\PARISC.H
D:\BOOST_1_57_0\BOOST\PREDEF\ARCHITECTURE\PPC.H
D:\BOOST_1_57_0\BOOST\PREDEF\ARCHITECTURE\PYRAMID.H
D:\BOOST_1_57_0\BOOST\PREDEF\ARCHITECTURE\RS6K.H
D:\BOOST_1_57_0\BOOST\PREDEF\ARCHITECTURE\SPARC.H
D:\BOOST_1_57_0\BOOST\PREDEF\ARCHITECTURE\SUPERH.H
D:\BOOST_1_57_0\BOOST\PREDEF\ARCHITECTURE\SYS370.H
D:\BOOST_1_57_0\BOOST\PREDEF\ARCHITECTURE\SYS390.H
D:\BOOST_1_57_0\BOOST\PREDEF\ARCHITECTURE\X86.H
D:\BOOST_1_57_0\BOOST\PREDEF\ARCHITECTURE\X86\32.H
D:\BOOST_1_57_0\BOOST\PREDEF\ARCHITECTURE\X86\64.H
D:\BOOST_1_57_0\BOOST\PREDEF\ARCHITECTURE\Z.H
D:\BOOST_1_57_0\BOOST\PREDEF\COMPILER.H
D:\BOOST_1_57_0\BOOST\PREDEF\COMPILER\BORLAND.H
D:\BOOST_1_57_0\BOOST\PREDEF\COMPILER\CLANG.H
D:\BOOST_1_57_0\BOOST\PREDEF\COMPILER\COMEAU.H
D:\BOOST_1_57_0\BOOST\PREDEF\COMPILER\COMPAQ.H
D:\BOOST_1_57_0\BOOST\PREDEF\COMPILER\DIAB.H
D:\BOOST_1_57_0\BOOST\PREDEF\COMPILER\DIGITALMARS.H
D:\BOOST_1_57_0\BOOST\PREDEF\COMPILER\DIGNUS.H
D:\BOOST_1_57_0\BOOST\PREDEF\COMPILER\EDG.H
D:\BOOST_1_57_0\BOOST\PREDEF\COMPILER\EKOPATH.H
D:\BOOST_1_57_0\BOOST\PREDEF\COMPILER\GCC_XML.H
D:\BOOST_1_57_0\BOOST\PREDEF\COMPILER\GCC.H
D:\BOOST_1_57_0\BOOST\PREDEF\COMPILER\GREENHILLS.H
D:\BOOST_1_57_0\BOOST\PREDEF\COMPILER\HP_ACC.H
D:\BOOST_1_57_0\BOOST\PREDEF\COMPILER\IAR.H
D:\BOOST_1_57_0\BOOST\PREDEF\COMPILER\IBM.H
D:\BOOST_1_57_0\BOOST\PREDEF\COMPILER\INTEL.H
D:\BOOST_1_57_0\BOOST\PREDEF\COMPILER\KAI.H
D:\BOOST_1_57_0\BOOST\PREDEF\COMPILER\LLVM.H
D:\BOOST_1_57_0\BOOST\PREDEF\COMPILER\METAWARE.H
D:\BOOST_1_57_0\BOOST\PREDEF\COMPILER\METROWERKS.H
D:\BOOST_1_57_0\BOOST\PREDEF\COMPILER\MICROTEC.H
D:\BOOST_1_57_0\BOOST\PREDEF\COMPILER\MPW.H
D:\BOOST_1_57_0\BOOST\PREDEF\COMPILER\PALM.H
D:\BOOST_1_57_0\BOOST\PREDEF\COMPILER\PGI.H
D:\BOOST_1_57_0\BOOST\PREDEF\COMPILER\SGI_MIPSPRO.H
D:\BOOST_1_57_0\BOOST\PREDEF\COMPILER\SUNPRO.H
D:\BOOST_1_57_0\BOOST\PREDEF\COMPILER\TENDRA.H
D:\BOOST_1_57_0\BOOST\PREDEF\COMPILER\VISUALC.H
D:\BOOST_1_57_0\BOOST\PREDEF\DETAIL\COMP_DETECTED.H
D:\BOOST_1_57_0\BOOST\PREDEF\COMPILER\WATCOM.H
D:\BOOST_1_57_0\BOOST\PREDEF\LIBRARY.H
D:\BOOST_1_57_0\BOOST\PREDEF\LIBRARY\C.H
D:\BOOST_1_57_0\BOOST\PREDEF\LIBRARY\C\_PREFIX.H
D:\BOOST_1_57_0\BOOST\PREDEF\DETAIL\_CASSERT.H
D:\BOOST_1_57_0\BOOST\PREDEF\LIBRARY\C\GNU.H
D:\BOOST_1_57_0\BOOST\PREDEF\LIBRARY\C\UC.H
D:\BOOST_1_57_0\BOOST\PREDEF\LIBRARY\C\VMS.H
D:\BOOST_1_57_0\BOOST\PREDEF\LIBRARY\C\ZOS.H
D:\BOOST_1_57_0\BOOST\PREDEF\LIBRARY\STD.H
D:\BOOST_1_57_0\BOOST\PREDEF\LIBRARY\STD\_PREFIX.H
D:\BOOST_1_57_0\BOOST\PREDEF\DETAIL\_EXCEPTION.H
D:\BOOST_1_57_0\BOOST\PREDEF\LIBRARY\STD\CXX.H
D:\BOOST_1_57_0\BOOST\PREDEF\LIBRARY\STD\DINKUMWARE.H
D:\BOOST_1_57_0\BOOST\PREDEF\LIBRARY\STD\LIBCOMO.H
D:\BOOST_1_57_0\BOOST\PREDEF\LIBRARY\STD\MODENA.H
D:\BOOST_1_57_0\BOOST\PREDEF\LIBRARY\STD\MSL.H
D:\BOOST_1_57_0\BOOST\PREDEF\LIBRARY\STD\ROGUEWAVE.H
D:\BOOST_1_57_0\BOOST\PREDEF\LIBRARY\STD\SGI.H
D:\BOOST_1_57_0\BOOST\PREDEF\LIBRARY\STD\STDCPP3.H
D:\BOOST_1_57_0\BOOST\PREDEF\LIBRARY\STD\STLPORT.H
D:\BOOST_1_57_0\BOOST\PREDEF\LIBRARY\STD\VACPP.H
D:\BOOST_1_57_0\BOOST\PREDEF\OS.H
D:\BOOST_1_57_0\BOOST\PREDEF\OS\AIX.H
D:\BOOST_1_57_0\BOOST\PREDEF\OS\AMIGAOS.H
D:\BOOST_1_57_0\BOOST\PREDEF\OS\ANDROID.H
D:\BOOST_1_57_0\BOOST\PREDEF\OS\BEOS.H
D:\BOOST_1_57_0\BOOST\PREDEF\OS\BSD.H
D:\BOOST_1_57_0\BOOST\PREDEF\OS\MACOS.H
D:\BOOST_1_57_0\BOOST\PREDEF\OS\IOS.H
D:\BOOST_1_57_0\BOOST\PREDEF\OS\BSD\BSDI.H
D:\BOOST_1_57_0\BOOST\PREDEF\OS\BSD\DRAGONFLY.H
D:\BOOST_1_57_0\BOOST\PREDEF\OS\BSD\FREE.H
D:\BOOST_1_57_0\BOOST\PREDEF\OS\BSD\OPEN.H
D:\BOOST_1_57_0\BOOST\PREDEF\OS\BSD\NET.H
D:\BOOST_1_57_0\BOOST\PREDEF\OS\CYGWIN.H
D:\BOOST_1_57_0\BOOST\PREDEF\OS\HPUX.H
D:\BOOST_1_57_0\BOOST\PREDEF\OS\IRIX.H
D:\BOOST_1_57_0\BOOST\PREDEF\OS\LINUX.H
D:\BOOST_1_57_0\BOOST\PREDEF\OS\OS400.H
D:\BOOST_1_57_0\BOOST\PREDEF\OS\QNXNTO.H
D:\BOOST_1_57_0\BOOST\PREDEF\OS\SOLARIS.H
D:\BOOST_1_57_0\BOOST\PREDEF\OS\UNIX.H
D:\BOOST_1_57_0\BOOST\PREDEF\OS\VMS.H
D:\BOOST_1_57_0\BOOST\PREDEF\OS\WINDOWS.H
D:\BOOST_1_57_0\BOOST\PREDEF\DETAIL\OS_DETECTED.H
D:\BOOST_1_57_0\BOOST\PREDEF\OTHER.H
D:\BOOST_1_57_0\BOOST\PREDEF\OTHER\ENDIAN.H
D:\BOOST_1_57_0\BOOST\PREDEF\PLATFORM.H
D:\BOOST_1_57_0\BOOST\PREDEF\PLATFORM\MINGW.H
D:\BOOST_1_57_0\BOOST\PREDEF\PLATFORM\WINDOWS_DESKTOP.H
D:\BOOST_1_57_0\BOOST\PREDEF\DETAIL\PLATFORM_DETECTED.H
D:\BOOST_1_57_0\BOOST\PREDEF\PLATFORM\WINDOWS_STORE.H
D:\BOOST_1_57_0\BOOST\PREDEF\PLATFORM\WINDOWS_PHONE.H
D:\BOOST_1_57_0\BOOST\PREDEF\PLATFORM\WINDOWS_RUNTIME.H
C:\PROGRAM FILES\MICROSOFT VISUAL STUDIO 10.0\VC\INCLUDE\ALGORITHM
D:\BOOST_1_57_0\BOOST\SMART_PTR\DETAIL\OPERATOR_BOOL.HPP
D:\BOOST_1_57_0\BOOST\TEST\UNIT_TEST_LOG.HPP
D:\BOOST_1_57_0\BOOST\TEST\TEST_OBSERVER.HPP
D:\BOOST_1_57_0\BOOST\TEST\DETAIL\FWD_DECL.HPP
D:\BOOST_1_57_0\BOOST\TEST\DETAIL\GLOBAL_TYPEDEF.HPP
D:\BOOST_1_57_0\BOOST\TEST\DETAIL\LOG_LEVEL.HPP
D:\BOOST_1_57_0\BOOST\TEST\UTILS\TRIVIAL_SINGLETON.HPP
D:\BOOST_1_57_0\BOOST\NONCOPYABLE.HPP
D:\BOOST_1_57_0\BOOST\CORE\NONCOPYABLE.HPP
D:\BOOST_1_57_0\BOOST\TEST\UTILS\LAZY_OSTREAM.HPP
D:\BOOST_1_57_0\BOOST\UTILITY.HPP
D:\BOOST_1_57_0\BOOST\UTILITY\BASE_FROM_MEMBER.HPP
D:\BOOST_1_57_0\BOOST\PREPROCESSOR\REPETITION\ENUM_BINARY_PARAMS.HPP
D:\BOOST_1_57_0\BOOST\PREPROCESSOR\REPETITION\ENUM_PARAMS.HPP
D:\BOOST_1_57_0\BOOST\PREPROCESSOR\REPETITION\REPEAT_FROM_TO.HPP
D:\BOOST_1_57_0\BOOST\PREPROCESSOR\ARITHMETIC\ADD.HPP
D:\BOOST_1_57_0\BOOST\PREPROCESSOR\CONTROL\WHILE.HPP
D:\BOOST_1_57_0\BOOST\PREPROCESSOR\LIST\FOLD_LEFT.HPP
D:\BOOST_1_57_0\BOOST\PREPROCESSOR\LIST\DETAIL\FOLD_LEFT.HPP
D:\BOOST_1_57_0\BOOST\PREPROCESSOR\CONTROL\EXPR_IIF.HPP
D:\BOOST_1_57_0\BOOST\PREPROCESSOR\LIST\ADT.HPP
D:\BOOST_1_57_0\BOOST\PREPROCESSOR\DETAIL\IS_BINARY.HPP
D:\BOOST_1_57_0\BOOST\PREPROCESSOR\DETAIL\CHECK.HPP
D:\BOOST_1_57_0\BOOST\PREPROCESSOR\LOGICAL\COMPL.HPP
D:\BOOST_1_57_0\BOOST\PREPROCESSOR\LIST\FOLD_RIGHT.HPP
D:\BOOST_1_57_0\BOOST\PREPROCESSOR\LIST\DETAIL\FOLD_RIGHT.HPP
D:\BOOST_1_57_0\BOOST\PREPROCESSOR\LIST\REVERSE.HPP
D:\BOOST_1_57_0\BOOST\PREPROCESSOR\LOGICAL\BITAND.HPP
D:\BOOST_1_57_0\BOOST\PREPROCESSOR\CONTROL\DETAIL\MSVC\WHILE.HPP
D:\BOOST_1_57_0\BOOST\PREPROCESSOR\ARITHMETIC\SUB.HPP
D:\BOOST_1_57_0\BOOST\UTILITY\ENABLE_IF.HPP
D:\BOOST_1_57_0\BOOST\CORE\ENABLE_IF.HPP
D:\BOOST_1_57_0\BOOST\UTILITY\BINARY.HPP
D:\BOOST_1_57_0\BOOST\PREPROCESSOR\CONTROL\DEDUCE_D.HPP
D:\BOOST_1_57_0\BOOST\PREPROCESSOR\FACILITIES\IDENTITY.HPP
D:\BOOST_1_57_0\BOOST\PREPROCESSOR\SEQ\CAT.HPP
D:\BOOST_1_57_0\BOOST\PREPROCESSOR\SEQ\FOLD_LEFT.HPP
D:\BOOST_1_57_0\BOOST\PREPROCESSOR\SEQ\TRANSFORM.HPP
D:\BOOST_1_57_0\BOOST\PREPROCESSOR\ARITHMETIC\MOD.HPP
D:\BOOST_1_57_0\BOOST\PREPROCESSOR\ARITHMETIC\DETAIL\DIV_BASE.HPP
D:\BOOST_1_57_0\BOOST\PREPROCESSOR\COMPARISON\LESS_EQUAL.HPP
D:\BOOST_1_57_0\BOOST\PREPROCESSOR\LOGICAL\NOT.HPP
D:\BOOST_1_57_0\BOOST\UTILITY\IDENTITY_TYPE.HPP
D:\BOOST_1_57_0\BOOST\TYPE_TRAITS\FUNCTION_TRAITS.HPP
D:\BOOST_1_57_0\BOOST\NEXT_PRIOR.HPP
C:\PROGRAM FILES\MICROSOFT VISUAL STUDIO 10.0\VC\INCLUDE\ITERATOR
D:\BOOST_1_57_0\BOOST\TYPE_TRAITS\IS_UNSIGNED.HPP
D:\BOOST_1_57_0\BOOST\TYPE_TRAITS\INTEGRAL_PROMOTION.HPP
D:\BOOST_1_57_0\BOOST\MPL\EVAL_IF.HPP
D:\BOOST_1_57_0\BOOST\MPL\IF.HPP
D:\BOOST_1_57_0\BOOST\MPL\AUX_\VALUE_WKND.HPP
D:\BOOST_1_57_0\BOOST\MPL\AUX_\CONFIG\INTEGRAL.HPP
D:\BOOST_1_57_0\BOOST\MPL\AUX_\CONFIG\ETI.HPP
D:\BOOST_1_57_0\BOOST\MPL\AUX_\NA_SPEC.HPP
D:\BOOST_1_57_0\BOOST\MPL\LAMBDA_FWD.HPP
D:\BOOST_1_57_0\BOOST\MPL\VOID_FWD.HPP
D:\BOOST_1_57_0\BOOST\MPL\AUX_\NA.HPP
D:\BOOST_1_57_0\BOOST\MPL\AUX_\NA_FWD.HPP
D:\BOOST_1_57_0\BOOST\MPL\AUX_\LAMBDA_ARITY_PARAM.HPP
D:\BOOST_1_57_0\BOOST\MPL\AUX_\ARITY.HPP
D:\BOOST_1_57_0\BOOST\MPL\AUX_\CONFIG\DTP.HPP
D:\BOOST_1_57_0\BOOST\MPL\AUX_\PREPROCESSOR\ENUM.HPP
D:\BOOST_1_57_0\BOOST\MPL\AUX_\PREPROCESSOR\DEF_PARAMS_TAIL.HPP
D:\BOOST_1_57_0\BOOST\MPL\LIMITS\ARITY.HPP
D:\BOOST_1_57_0\BOOST\PREPROCESSOR\LOGICAL\AND.HPP
D:\BOOST_1_57_0\BOOST\PREPROCESSOR\IDENTITY.HPP
D:\BOOST_1_57_0\BOOST\PREPROCESSOR\EMPTY.HPP
D:\BOOST_1_57_0\BOOST\MPL\IDENTITY.HPP
D:\BOOST_1_57_0\BOOST\TYPE_TRAITS\IS_CONST.HPP
D:\BOOST_1_57_0\BOOST\TYPE_TRAITS\IS_VOLATILE.HPP
D:\BOOST_1_57_0\BOOST\TYPE_TRAITS\MAKE_SIGNED.HPP
D:\BOOST_1_57_0\BOOST\TYPE_TRAITS\IS_SIGNED.HPP
D:\BOOST_1_57_0\BOOST\TYPE_TRAITS\ADD_VOLATILE.HPP
D:\BOOST_1_57_0\BOOST\STATIC_ASSERT.HPP
D:\BOOST_1_57_0\BOOST\TYPE_TRAITS\HAS_PLUS.HPP
D:\BOOST_1_57_0\BOOST\TYPE_TRAITS\DETAIL\HAS_BINARY_OPERATOR.HPP
D:\BOOST_1_57_0\BOOST\TYPE_TRAITS\IS_BASE_OF.HPP
D:\BOOST_1_57_0\BOOST\TYPE_TRAITS\IS_BASE_AND_DERIVED.HPP
D:\BOOST_1_57_0\BOOST\TYPE_TRAITS\IS_CLASS.HPP
D:\BOOST_1_57_0\BOOST\TYPE_TRAITS\IS_CONVERTIBLE.HPP
D:\BOOST_1_57_0\BOOST\TYPE_TRAITS\IS_FUNDAMENTAL.HPP
D:\BOOST_1_57_0\BOOST\TYPE_TRAITS\IS_VOID.HPP
D:\BOOST_1_57_0\BOOST\TYPE_TRAITS\REMOVE_POINTER.HPP
D:\BOOST_1_57_0\BOOST\TYPE_TRAITS\HAS_PLUS_ASSIGN.HPP
D:\BOOST_1_57_0\BOOST\TYPE_TRAITS\HAS_MINUS.HPP
D:\BOOST_1_57_0\BOOST\TYPE_TRAITS\HAS_MINUS_ASSIGN.HPP
D:\BOOST_1_57_0\BOOST\TEST\FLOATING_POINT_COMPARISON.HPP
D:\BOOST_1_57_0\BOOST\LIMITS.HPP
D:\BOOST_1_57_0\BOOST\NUMERIC\CONVERSION\CONVERSION_TRAITS.HPP
D:\BOOST_1_57_0\BOOST\NUMERIC\CONVERSION\DETAIL\CONVERSION_TRAITS.HPP
D:\BOOST_1_57_0\BOOST\NUMERIC\CONVERSION\DETAIL\META.HPP
D:\BOOST_1_57_0\BOOST\MPL\EQUAL_TO.HPP
D:\BOOST_1_57_0\BOOST\MPL\AUX_\COMPARISON_OP.HPP
D:\BOOST_1_57_0\BOOST\MPL\AUX_\NUMERIC_OP.HPP
D:\BOOST_1_57_0\BOOST\MPL\NUMERIC_CAST.HPP
D:\BOOST_1_57_0\BOOST\MPL\APPLY_WRAP.HPP
D:\BOOST_1_57_0\BOOST\MPL\AUX_\HAS_APPLY.HPP
D:\BOOST_1_57_0\BOOST\MPL\HAS_XXX.HPP
D:\BOOST_1_57_0\BOOST\MPL\AUX_\TYPE_WRAPPER.HPP
D:\BOOST_1_57_0\BOOST\MPL\AUX_\YES_NO.HPP
D:\BOOST_1_57_0\BOOST\MPL\AUX_\CONFIG\ARRAYS.HPP
D:\BOOST_1_57_0\BOOST\MPL\AUX_\CONFIG\HAS_XXX.HPP
D:\BOOST_1_57_0\BOOST\MPL\AUX_\CONFIG\MSVC_TYPENAME.HPP
D:\BOOST_1_57_0\BOOST\PREPROCESSOR\ARRAY\ELEM.HPP
D:\BOOST_1_57_0\BOOST\PREPROCESSOR\ARRAY\DATA.HPP
D:\BOOST_1_57_0\BOOST\PREPROCESSOR\ARRAY\SIZE.HPP
D:\BOOST_1_57_0\BOOST\PREPROCESSOR\REPETITION\ENUM_TRAILING_PARAMS.HPP
D:\BOOST_1_57_0\BOOST\MPL\AUX_\CONFIG\HAS_APPLY.HPP
D:\BOOST_1_57_0\BOOST\MPL\AUX_\MSVC_NEVER_TRUE.HPP
D:\BOOST_1_57_0\BOOST\MPL\AUX_\CONFIG\USE_PREPROCESSED.HPP
D:\BOOST_1_57_0\BOOST\MPL\AUX_\INCLUDE_PREPROCESSED.HPP
D:\BOOST_1_57_0\BOOST\MPL\AUX_\CONFIG\COMPILER.HPP
D:\BOOST_1_57_0\BOOST\PREPROCESSOR\STRINGIZE.HPP
D:\BOOST_1_57_0\BOOST\MPL\AUX_\PREPROCESSED\PLAIN\APPLY_WRAP.HPP
D:\BOOST_1_57_0\BOOST\MPL\TAG.HPP
D:\BOOST_1_57_0\BOOST\MPL\VOID.HPP
D:\BOOST_1_57_0\BOOST\MPL\AUX_\HAS_TAG.HPP
D:\BOOST_1_57_0\BOOST\MPL\AUX_\NUMERIC_CAST_UTILS.HPP
D:\BOOST_1_57_0\BOOST\MPL\AUX_\CONFIG\FORWARDING.HPP
D:\BOOST_1_57_0\BOOST\MPL\AUX_\MSVC_ETI_BASE.HPP
D:\BOOST_1_57_0\BOOST\MPL\AUX_\IS_MSVC_ETI_ARG.HPP
D:\BOOST_1_57_0\BOOST\MPL\AUX_\PREPROCESSED\PLAIN\EQUAL_TO.HPP
D:\BOOST_1_57_0\BOOST\MPL\NOT.HPP
D:\BOOST_1_57_0\BOOST\MPL\AUX_\NESTED_TYPE_WKND.HPP
D:\BOOST_1_57_0\BOOST\MPL\AND.HPP
D:\BOOST_1_57_0\BOOST\MPL\AUX_\PREPROCESSED\PLAIN\AND.HPP
D:\BOOST_1_57_0\BOOST\NUMERIC\CONVERSION\DETAIL\INT_FLOAT_MIXTURE.HPP
D:\BOOST_1_57_0\BOOST\NUMERIC\CONVERSION\INT_FLOAT_MIXTURE_ENUM.HPP
D:\BOOST_1_57_0\BOOST\NUMERIC\CONVERSION\DETAIL\SIGN_MIXTURE.HPP
D:\BOOST_1_57_0\BOOST\NUMERIC\CONVERSION\SIGN_MIXTURE_ENUM.HPP
D:\BOOST_1_57_0\BOOST\NUMERIC\CONVERSION\DETAIL\UDT_BUILTIN_MIXTURE.HPP
D:\BOOST_1_57_0\BOOST\NUMERIC\CONVERSION\UDT_BUILTIN_MIXTURE_ENUM.HPP
D:\BOOST_1_57_0\BOOST\NUMERIC\CONVERSION\DETAIL\IS_SUBRANGED.HPP
D:\BOOST_1_57_0\BOOST\MPL\MULTIPLIES.HPP
D:\BOOST_1_57_0\BOOST\MPL\TIMES.HPP
D:\BOOST_1_57_0\BOOST\MPL\AUX_\ARITHMETIC_OP.HPP
D:\BOOST_1_57_0\BOOST\MPL\AUX_\LARGEST_INT.HPP
D:\BOOST_1_57_0\BOOST\MPL\AUX_\PREPROCESSED\PLAIN\TIMES.HPP
D:\BOOST_1_57_0\BOOST\MPL\AUX_\PREPROCESSOR\DEFAULT_PARAMS.HPP
D:\BOOST_1_57_0\BOOST\MPL\LESS.HPP
D:\BOOST_1_57_0\BOOST\MPL\AUX_\PREPROCESSED\PLAIN\LESS.HPP
D:\BOOST_1_57_0\BOOST\TEST\DETAIL\WORKAROUND.HPP
D:\BOOST_1_57_0\BOOST\TEST\UTILS\BASIC_CSTRING\IO.HPP
D:\BOOST_1_57_0\BOOST\PREPROCESSOR\SEQ\ENUM.HPP
D:\BOOST_1_57_0\BOOST\TYPE_TRAITS\IS_ABSTRACT.HPP
D:\BOOST_1_57_0\BOOST\MPL\OR.HPP
D:\BOOST_1_57_0\BOOST\MPL\AUX_\PREPROCESSED\PLAIN\OR.HPP
D:\BOOST_1_57_0\BOOST\TEST\UNIT_TEST_SUITE.HPP
D:\BOOST_1_57_0\BOOST\TEST\UNIT_TEST_SUITE_IMPL.HPP
D:\BOOST_1_57_0\BOOST\TEST\UTILS\CALLBACK.HPP
D:\BOOST_1_57_0\BOOST\MPL\FOR_EACH.HPP
D:\BOOST_1_57_0\BOOST\MPL\IS_SEQUENCE.HPP
D:\BOOST_1_57_0\BOOST\MPL\BEGIN_END.HPP
D:\BOOST_1_57_0\BOOST\MPL\BEGIN_END_FWD.HPP
D:\BOOST_1_57_0\BOOST\MPL\AUX_\BEGIN_END_IMPL.HPP
D:\BOOST_1_57_0\BOOST\MPL\SEQUENCE_TAG_FWD.HPP
D:\BOOST_1_57_0\BOOST\MPL\AUX_\HAS_BEGIN.HPP
D:\BOOST_1_57_0\BOOST\MPL\AUX_\TRAITS_LAMBDA_SPEC.HPP
D:\BOOST_1_57_0\BOOST\MPL\SEQUENCE_TAG.HPP
D:\BOOST_1_57_0\BOOST\MPL\APPLY.HPP
D:\BOOST_1_57_0\BOOST\MPL\APPLY_FWD.HPP
D:\BOOST_1_57_0\BOOST\MPL\AUX_\PREPROCESSED\PLAIN\APPLY_FWD.HPP
D:\BOOST_1_57_0\BOOST\MPL\PLACEHOLDERS.HPP
D:\BOOST_1_57_0\BOOST\MPL\ARG.HPP
D:\BOOST_1_57_0\BOOST\MPL\ARG_FWD.HPP
D:\BOOST_1_57_0\BOOST\MPL\AUX_\NA_ASSERT.HPP
D:\BOOST_1_57_0\BOOST\MPL\ASSERT.HPP
D:\BOOST_1_57_0\BOOST\MPL\AUX_\CONFIG\GPU.HPP
D:\BOOST_1_57_0\BOOST\MPL\AUX_\CONFIG\PP_COUNTER.HPP
D:\BOOST_1_57_0\BOOST\MPL\AUX_\ARITY_SPEC.HPP
D:\BOOST_1_57_0\BOOST\MPL\AUX_\ARG_TYPEDEF.HPP
D:\BOOST_1_57_0\BOOST\MPL\AUX_\PREPROCESSED\PLAIN\ARG.HPP
D:\BOOST_1_57_0\BOOST\MPL\AUX_\PREPROCESSED\PLAIN\PLACEHOLDERS.HPP
D:\BOOST_1_57_0\BOOST\MPL\LAMBDA.HPP
D:\BOOST_1_57_0\BOOST\MPL\BIND.HPP
D:\BOOST_1_57_0\BOOST\MPL\BIND_FWD.HPP
D:\BOOST_1_57_0\BOOST\MPL\AUX_\CONFIG\BIND.HPP
D:\BOOST_1_57_0\BOOST\MPL\AUX_\PREPROCESSED\PLAIN\BIND_FWD.HPP
D:\BOOST_1_57_0\BOOST\MPL\NEXT.HPP
D:\BOOST_1_57_0\BOOST\MPL\NEXT_PRIOR.HPP
D:\BOOST_1_57_0\BOOST\MPL\AUX_\COMMON_NAME_WKND.HPP
D:\BOOST_1_57_0\BOOST\MPL\PROTECT.HPP
D:\BOOST_1_57_0\BOOST\MPL\AUX_\PREPROCESSED\PLAIN\BIND.HPP
D:\BOOST_1_57_0\BOOST\MPL\AUX_\FULL_LAMBDA.HPP
D:\BOOST_1_57_0\BOOST\MPL\QUOTE.HPP
D:\BOOST_1_57_0\BOOST\MPL\AUX_\HAS_TYPE.HPP
D:\BOOST_1_57_0\BOOST\MPL\AUX_\CONFIG\BCC.HPP
D:\BOOST_1_57_0\BOOST\MPL\AUX_\PREPROCESSED\PLAIN\QUOTE.HPP
D:\BOOST_1_57_0\BOOST\MPL\AUX_\TEMPLATE_ARITY.HPP
D:\BOOST_1_57_0\BOOST\MPL\AUX_\PREPROCESSED\PLAIN\TEMPLATE_ARITY.HPP
D:\BOOST_1_57_0\BOOST\MPL\AUX_\PREPROCESSED\PLAIN\FULL_LAMBDA.HPP
D:\BOOST_1_57_0\BOOST\MPL\AUX_\PREPROCESSED\PLAIN\APPLY.HPP
D:\BOOST_1_57_0\BOOST\MPL\DEREF.HPP
D:\BOOST_1_57_0\BOOST\MPL\AUX_\MSVC_TYPE.HPP
D:\BOOST_1_57_0\BOOST\MPL\AUX_\UNWRAP.HPP
D:\BOOST_1_57_0\BOOST\REF.HPP
D:\BOOST_1_57_0\BOOST\CORE\REF.HPP
D:\BOOST_1_57_0\BOOST\UTILITY\VALUE_INIT.HPP
D:\BOOST_1_57_0\BOOST\ALIGNED_STORAGE.HPP
D:\BOOST_1_57_0\BOOST\TYPE_TRAITS\ALIGNMENT_OF.HPP
D:\BOOST_1_57_0\BOOST\TYPE_TRAITS\DETAIL\SIZE_T_TRAIT_DEF.HPP
D:\BOOST_1_57_0\BOOST\MPL\SIZE_T.HPP
D:\BOOST_1_57_0\BOOST\MPL\SIZE_T_FWD.HPP
D:\BOOST_1_57_0\BOOST\TYPE_TRAITS\DETAIL\SIZE_T_TRAIT_UNDEF.HPP
D:\BOOST_1_57_0\BOOST\TYPE_TRAITS\TYPE_WITH_ALIGNMENT.HPP
D:\BOOST_1_57_0\BOOST\PREPROCESSOR\LIST\FOR_EACH_I.HPP
D:\BOOST_1_57_0\BOOST\PREPROCESSOR\TUPLE\TO_LIST.HPP
D:\BOOST_1_57_0\BOOST\PREPROCESSOR\LIST\TRANSFORM.HPP
D:\BOOST_1_57_0\BOOST\PREPROCESSOR\LIST\APPEND.HPP
D:\BOOST_1_57_0\BOOST\TYPE_TRAITS\IS_POD.HPP
D:\BOOST_1_57_0\BOOST\TYPE_TRAITS\IS_SCALAR.HPP
D:\BOOST_1_57_0\BOOST\TYPE_TRAITS\CV_TRAITS.HPP
D:\BOOST_1_57_0\BOOST\TYPE_TRAITS\ADD_CV.HPP
D:\BOOST_1_57_0\BOOST\TYPE_TRAITS\REMOVE_CONST.HPP
D:\BOOST_1_57_0\BOOST\TYPE_TRAITS\REMOVE_VOLATILE.HPP
D:\BOOST_1_57_0\BOOST\SWAP.HPP
D:\BOOST_1_57_0\BOOST\CORE\SWAP.HPP
D:\BOOST_1_57_0\BOOST\TYPE.HPP
C:\PROGRAM FILES\MICROSOFT VISUAL STUDIO 10.0\VC\INCLUDE\LIST
C:\PROGRAM FILES\MICROSOFT VISUAL STUDIO 10.0\VC\INCLUDE\VECTOR
D:\BOOST_1_57_0\BOOST\TEST\FRAMEWORK.HPP
D:\BOOST_1_57_0\BOOST\CONFIG\AUTO_LINK.HPP
D:\BOOST_1_57_0\BOOST\VERSION.HPP
^C:\USERS\ДАРЬЯ\DOCUMENTS\MUL_OF_LONGNUMBERS\TESTS\FUNCTIONS TEST.CPP
C:\PROGRAM FILES\MICROSOFT VISUAL STUDIO 10.0\VC\BIN\1049\CLUI.DLL
C:\WINDOWS\GLOBALIZATION\SORTING\SORTDEFAULT.NLS
C:\WINDOWS\SYSTEM32\RSAENH.DLL
C:\WINDOWS\SYSTEM32\TZRES.DLL
C:\USERS\дарья\DOCUMENTS\MUL_OF_LONGNUMBERS\TESTS\FUNCTIONS.H
D:\BOOST_1_57_0\BOOST\TEST\UNIT_TEST.HPP
D:\BOOST_1_57_0\BOOST\TEST\TEST_TOOLS.HPP
D:\BOOST_1_57_0\BOOST\TEST\PREDICATE_RESULT.HPP
D:\BOOST_1_57_0\BOOST\TEST\UTILS\CLASS_PROPERTIES.HPP
D:\BOOST_1_57_0\BOOST\TEST\DETAIL\CONFIG.HPP
D:\BOOST_1_57_0\BOOST\CONFIG.HPP
D:\BOOST_1_57_0\BOOST\CONFIG\USER.HPP
D:\BOOST_1_57_0\BOOST\CONFIG\SELECT_COMPILER_CONFIG.HPP
D:\BOOST_1_57_0\BOOST\CONFIG\COMPILER\VISUALC.HPP
D:\BOOST_1_57_0\BOOST\CONFIG\SELECT_STDLIB_CONFIG.HPP
C:\PROGRAM FILES\MICROSOFT VISUAL STUDIO 10.0\VC\INCLUDE\CSTDDEF
C:\PROGRAM FILES\MICROSOFT VISUAL STUDIO 10.0\VC\INCLUDE\YVALS.H
C:\PROGRAM FILES\MICROSOFT VISUAL STUDIO 10.0\VC\INCLUDE\CRTDEFS.H
C:\PROGRAM FILES\MICROSOFT VISUAL STUDIO 10.0\VC\INCLUDE\SAL.H
C:\PROGRAM FILES\MICROSOFT VISUAL STUDIO 10.0\VC\INCLUDE\CODEANALYSIS\SOURCEANNOTATIONS.H
C:\PROGRAM FILES\MICROSOFT VISUAL STUDIO 10.0\VC\INCLUDE\VADEFS.H
C:\PROGRAM FILES\MICROSOFT VISUAL STUDIO 10.0\VC\INCLUDE\USE_ANSI.H
C:\PROGRAM FILES\MICROSOFT VISUAL STUDIO 10.0\VC\INCLUDE\STDDEF.H
D:\BOOST_1_57_0\BOOST\CONFIG\STDLIB\DINKUMWARE.HPP
C:\PROGRAM FILES\MICROSOFT VISUAL STUDIO 10.0\VC\INCLUDE\TYPEINFO
C:\PROGRAM FILES\MICROSOFT VISUAL STUDIO 10.0\VC\INCLUDE\XSTDDEF
C:\PROGRAM FILES\MICROSOFT VISUAL STUDIO 10.0\VC\INCLUDE\STRING.H
C:\PROGRAM FILES\MICROSOFT VISUAL STUDIO 10.0\VC\INCLUDE\EXCEPTION
C:\PROGRAM FILES\MICROSOFT VISUAL STUDIO 10.0\VC\INCLUDE\EH.H
C:\PROGRAM FILES\MICROSOFT VISUAL STUDIO 10.0\VC\INCLUDE\MALLOC.H
D:\BOOST_1_57_0\BOOST\CONFIG\SELECT_PLATFORM_CONFIG.HPP
D:\BOOST_1_57_0\BOOST\CONFIG\PLATFORM\WIN32.HPP
D:\BOOST_1_57_0\BOOST\CONFIG\SUFFIX.HPP
D:\BOOST_1_57_0\BOOST\DETAIL\WORKAROUND.HPP
D:\BOOST_1_57_0\BOOST\PREPROCESSOR\SEQ\FOR_EACH.HPP
D:\BOOST_1_57_0\BOOST\PREPROCESSOR\ARITHMETIC\DEC.HPP
D:\BOOST_1_57_0\BOOST\PREPROCESSOR\CONFIG\CONFIG.HPP
D:\BOOST_1_57_0\BOOST\PREPROCESSOR\REPETITION\FOR.HPP
D:\BOOST_1_57_0\BOOST\PREPROCESSOR\CAT.HPP
D:\BOOST_1_57_0\BOOST\PREPROCESSOR\DEBUG\ERROR.HPP
D:\BOOST_1_57_0\BOOST\PREPROCESSOR\DETAIL\AUTO_REC.HPP
D:\BOOST_1_57_0\BOOST\PREPROCESSOR\CONTROL\IIF.HPP
D:\BOOST_1_57_0\BOOST\PREPROCESSOR\REPETITION\DETAIL\MSVC\FOR.HPP
D:\BOOST_1_57_0\BOOST\PREPROCESSOR\CONTROL\IF.HPP
D:\BOOST_1_57_0\BOOST\PREPROCESSOR\LOGICAL\BOOL.HPP
D:\BOOST_1_57_0\BOOST\PREPROCESSOR\TUPLE\EAT.HPP
D:\BOOST_1_57_0\BOOST\PREPROCESSOR\SEQ\SEQ.HPP
D:\BOOST_1_57_0\BOOST\PREPROCESSOR\SEQ\ELEM.HPP
D:\BOOST_1_57_0\BOOST\PREPROCESSOR\FACILITIES\EMPTY.HPP
D:\BOOST_1_57_0\BOOST\PREPROCESSOR\SEQ\SIZE.HPP
D:\BOOST_1_57_0\BOOST\PREPROCESSOR\TUPLE\ELEM.HPP
D:\BOOST_1_57_0\BOOST\PREPROCESSOR\FACILITIES\EXPAND.HPP
D:\BOOST_1_57_0\BOOST\PREPROCESSOR\FACILITIES\OVERLOAD.HPP
D:\BOOST_1_57_0\BOOST\PREPROCESSOR\VARIADIC\SIZE.HPP
D:\BOOST_1_57_0\BOOST\PREPROCESSOR\TUPLE\REM.HPP
D:\BOOST_1_57_0\BOOST\PREPROCESSOR\TUPLE\DETAIL\IS_SINGLE_RETURN.HPP
D:\BOOST_1_57_0\BOOST\PREPROCESSOR\FACILITIES\IS_1.HPP
D:\BOOST_1_57_0\BOOST\PREPROCESSOR\FACILITIES\IS_EMPTY.HPP
D:\BOOST_1_57_0\BOOST\PREPROCESSOR\FACILITIES\IS_EMPTY_VARIADIC.HPP
D:\BOOST_1_57_0\BOOST\PREPROCESSOR\PUNCTUATION\IS_BEGIN_PARENS.HPP
D:\BOOST_1_57_0\BOOST\PREPROCESSOR\PUNCTUATION\DETAIL\IS_BEGIN_PARENS.HPP
D:\BOOST_1_57_0\BOOST\PREPROCESSOR\FACILITIES\DETAIL\IS_EMPTY.HPP
D:\BOOST_1_57_0\BOOST\PREPROCESSOR\TUPLE\SIZE.HPP
D:\BOOST_1_57_0\BOOST\PREPROCESSOR\VARIADIC\ELEM.HPP
D:\BOOST_1_57_0\BOOST\CALL_TRAITS.HPP
D:\BOOST_1_57_0\BOOST\DETAIL\CALL_TRAITS.HPP
D:\BOOST_1_57_0\BOOST\TYPE_TRAITS\IS_ARITHMETIC.HPP
D:\BOOST_1_57_0\BOOST\TYPE_TRAITS\IS_INTEGRAL.HPP
D:\BOOST_1_57_0\BOOST\TYPE_TRAITS\DETAIL\BOOL_TRAIT_DEF.HPP
D:\BOOST_1_57_0\BOOST\TYPE_TRAITS\DETAIL\TEMPLATE_ARITY_SPEC.HPP
D:\BOOST_1_57_0\BOOST\MPL\INT.HPP
D:\BOOST_1_57_0\BOOST\MPL\INT_FWD.HPP
D:\BOOST_1_57_0\BOOST\MPL\AUX_\ADL_BARRIER.HPP
D:\BOOST_1_57_0\BOOST\MPL\AUX_\CONFIG\ADL.HPP
D:\BOOST_1_57_0\BOOST\MPL\AUX_\CONFIG\MSVC.HPP
D:\BOOST_1_57_0\BOOST\MPL\AUX_\CONFIG\INTEL.HPP
D:\BOOST_1_57_0\BOOST\MPL\AUX_\CONFIG\GCC.HPP
D:\BOOST_1_57_0\BOOST\MPL\AUX_\CONFIG\WORKAROUND.HPP
D:\BOOST_1_57_0\BOOST\MPL\AUX_\NTTP_DECL.HPP
D:\BOOST_1_57_0\BOOST\MPL\AUX_\CONFIG\NTTP.HPP
D:\BOOST_1_57_0\BOOST\MPL\AUX_\INTEGRAL_WRAPPER.HPP
D:\BOOST_1_57_0\BOOST\MPL\INTEGRAL_C_TAG.HPP
D:\BOOST_1_57_0\BOOST\MPL\AUX_\CONFIG\STATIC_CONSTANT.HPP
D:\BOOST_1_57_0\BOOST\MPL\AUX_\STATIC_CAST.HPP
D:\BOOST_1_57_0\BOOST\MPL\AUX_\TEMPLATE_ARITY_FWD.HPP
D:\BOOST_1_57_0\BOOST\MPL\AUX_\PREPROCESSOR\PARAMS.HPP
D:\BOOST_1_57_0\BOOST\MPL\AUX_\CONFIG\PREPROCESSOR.HPP
D:\BOOST_1_57_0\BOOST\PREPROCESSOR\COMMA_IF.HPP
D:\BOOST_1_57_0\BOOST\PREPROCESSOR\PUNCTUATION\COMMA_IF.HPP
D:\BOOST_1_57_0\BOOST\PREPROCESSOR\PUNCTUATION\COMMA.HPP
D:\BOOST_1_57_0\BOOST\PREPROCESSOR\REPEAT.HPP
D:\BOOST_1_57_0\BOOST\PREPROCESSOR\REPETITION\REPEAT.HPP
D:\BOOST_1_57_0\BOOST\PREPROCESSOR\INC.HPP
D:\BOOST_1_57_0\BOOST\PREPROCESSOR\ARITHMETIC\INC.HPP
D:\BOOST_1_57_0\BOOST\MPL\AUX_\CONFIG\LAMBDA.HPP
D:\BOOST_1_57_0\BOOST\MPL\AUX_\CONFIG\TTP.HPP
D:\BOOST_1_57_0\BOOST\MPL\AUX_\CONFIG\CTPS.HPP
D:\BOOST_1_57_0\BOOST\MPL\AUX_\CONFIG\OVERLOAD_RESOLUTION.HPP
D:\BOOST_1_57_0\BOOST\TYPE_TRAITS\INTEGRAL_CONSTANT.HPP
D:\BOOST_1_57_0\BOOST\MPL\BOOL.HPP
D:\BOOST_1_57_0\BOOST\MPL\BOOL_FWD.HPP
D:\BOOST_1_57_0\BOOST\MPL\INTEGRAL_C.HPP
D:\BOOST_1_57_0\BOOST\MPL\INTEGRAL_C_FWD.HPP
D:\BOOST_1_57_0\BOOST\MPL\AUX_\LAMBDA_SUPPORT.HPP
D:\BOOST_1_57_0\BOOST\TYPE_TRAITS\DETAIL\BOOL_TRAIT_UNDEF.HPP
D:\BOOST_1_57_0\BOOST\TYPE_TRAITS\IS_FLOAT.HPP
D:\BOOST_1_57_0\BOOST\TYPE_TRAITS\DETAIL\ICE_OR.HPP
D:\BOOST_1_57_0\BOOST\TYPE_TRAITS\IS_ENUM.HPP
D:\BOOST_1_57_0\BOOST\TYPE_TRAITS\INTRINSICS.HPP
D:\BOOST_1_57_0\BOOST\TYPE_TRAITS\CONFIG.HPP
D:\BOOST_1_57_0\BOOST\TYPE_TRAITS\IS_SAME.HPP
D:\BOOST_1_57_0\BOOST\TYPE_TRAITS\IS_FUNCTION.HPP
D:\BOOST_1_57_0\BOOST\TYPE_TRAITS\IS_REFERENCE.HPP
D:\BOOST_1_57_0\BOOST\TYPE_TRAITS\IS_LVALUE_REFERENCE.HPP
D:\BOOST_1_57_0\BOOST\TYPE_TRAITS\IS_RVALUE_REFERENCE.HPP
D:\BOOST_1_57_0\BOOST\TYPE_TRAITS\ICE.HPP
D:\BOOST_1_57_0\BOOST\TYPE_TRAITS\DETAIL\YES_NO_TYPE.HPP
D:\BOOST_1_57_0\BOOST\TYPE_TRAITS\DETAIL\ICE_AND.HPP
D:\BOOST_1_57_0\BOOST\TYPE_TRAITS\DETAIL\ICE_NOT.HPP
D:\BOOST_1_57_0\BOOST\TYPE_TRAITS\DETAIL\ICE_EQ.HPP
D:\BOOST_1_57_0\BOOST\TYPE_TRAITS\DETAIL\FALSE_RESULT.HPP
D:\BOOST_1_57_0\BOOST\TYPE_TRAITS\DETAIL\IS_FUNCTION_PTR_TESTER.HPP
D:\BOOST_1_57_0\BOOST\TYPE_TRAITS\IS_POINTER.HPP
D:\BOOST_1_57_0\BOOST\TYPE_TRAITS\IS_MEMBER_POINTER.HPP
D:\BOOST_1_57_0\BOOST\TYPE_TRAITS\IS_MEMBER_FUNCTION_POINTER.HPP
D:\BOOST_1_57_0\BOOST\TYPE_TRAITS\IS_ARRAY.HPP
D:\BOOST_1_57_0\BOOST\TYPE_TRAITS\DETAIL\IS_MEM_FUN_POINTER_TESTER.HPP
D:\BOOST_1_57_0\BOOST\TYPE_TRAITS\REMOVE_CV.HPP
D:\BOOST_1_57_0\BOOST\TYPE_TRAITS\DETAIL\CV_TRAITS_IMPL.HPP
D:\BOOST_1_57_0\BOOST\TYPE_TRAITS\DETAIL\TYPE_TRAIT_DEF.HPP
D:\BOOST_1_57_0\BOOST\TYPE_TRAITS\DETAIL\TYPE_TRAIT_UNDEF.HPP
D:\BOOST_1_57_0\BOOST\TYPE_TRAITS\ADD_POINTER.HPP
D:\BOOST_1_57_0\BOOST\TYPE_TRAITS\REMOVE_REFERENCE.HPP
D:\BOOST_1_57_0\BOOST\TYPE_TRAITS\ADD_CONST.HPP
D:\BOOST_1_57_0\BOOST\UTILITY\ADDRESSOF.HPP
D:\BOOST_1_57_0\BOOST\CORE\ADDRESSOF.HPP
C:\PROGRAM FILES\MICROSOFT VISUAL STUDIO 10.0\VC\INCLUDE\IOSFWD
C:\PROGRAM FILES\MICROSOFT VISUAL STUDIO 10.0\VC\INCLUDE\CSTDIO
C:\PROGRAM FILES\MICROSOFT VISUAL STUDIO 10.0\VC\INCLUDE\STDIO.H
C:\PROGRAM FILES\MICROSOFT VISUAL STUDIO 10.0\VC\INCLUDE\SWPRINTF.INL
C:\PROGRAM FILES\MICROSOFT VISUAL STUDIO 10.0\VC\INCLUDE\CSTRING
C:\PROGRAM FILES\MICROSOFT VISUAL STUDIO 10.0\VC\INCLUDE\CWCHAR
C:\PROGRAM FILES\MICROSOFT VISUAL STUDIO 10.0\VC\INCLUDE\WCHAR.H
C:\PROGRAM FILES\MICROSOFT VISUAL STUDIO 10.0\VC\INCLUDE\WTIME.INL
C:\PROGRAM FILES\MICROSOFT VISUAL STUDIO 10.0\VC\INCLUDE\CRTDBG.H
D:\BOOST_1_57_0\BOOST\TEST\DETAIL\SUPPRESS_WARNINGS.HPP
D:\BOOST_1_57_0\BOOST\TEST\DETAIL\ENABLE_WARNINGS.HPP
D:\BOOST_1_57_0\BOOST\TEST\UTILS\WRAP_STRINGSTREAM.HPP
C:\PROGRAM FILES\MICROSOFT VISUAL STUDIO 10.0\VC\INCLUDE\SSTREAM
C:\PROGRAM FILES\MICROSOFT VISUAL STUDIO 10.0\VC\INCLUDE\STRING
C:\PROGRAM FILES\MICROSOFT VISUAL STUDIO 10.0\VC\INCLUDE\ISTREAM
C:\PROGRAM FILES\MICROSOFT VISUAL STUDIO 10.0\VC\INCLUDE\OSTREAM
C:\PROGRAM FILES\MICROSOFT VISUAL STUDIO 10.0\VC\INCLUDE\IOS
C:\PROGRAM FILES\MICROSOFT VISUAL STUDIO 10.0\VC\INCLUDE\XLOCNUM
C:\PROGRAM FILES\MICROSOFT VISUAL STUDIO 10.0\VC\INCLUDE\CLIMITS
C:\PROGRAM FILES\MICROSOFT VISUAL STUDIO 10.0\VC\INCLUDE\LIMITS.H
C:\PROGRAM FILES\MICROSOFT VISUAL STUDIO 10.0\VC\INCLUDE\CMATH
C:\PROGRAM FILES\MICROSOFT VISUAL STUDIO 10.0\VC\INCLUDE\MATH.H
C:\PROGRAM FILES\MICROSOFT VISUAL STUDIO 10.0\VC\INCLUDE\CSTDLIB
C:\PROGRAM FILES\MICROSOFT VISUAL STUDIO 10.0\VC\INCLUDE\STDLIB.H
C:\PROGRAM FILES\MICROSOFT VISUAL STUDIO 10.0\VC\INCLUDE\STREAMBUF
C:\PROGRAM FILES\MICROSOFT VISUAL STUDIO 10.0\VC\INCLUDE\XIOSBASE
C:\PROGRAM FILES\MICROSOFT VISUAL STUDIO 10.0\VC\INCLUDE\XLOCALE
C:\PROGRAM FILES\MICROSOFT VISUAL STUDIO 10.0\VC\INCLUDE\STDEXCEPT
C:\PROGRAM FILES\MICROSOFT VISUAL STUDIO 10.0\VC\INCLUDE\XSTRING
C:\PROGRAM FILES\MICROSOFT VISUAL STUDIO 10.0\VC\INCLUDE\XMEMORY
C:\PROGRAM FILES\MICROSOFT VISUAL STUDIO 10.0\VC\INCLUDE\NEW
C:\PROGRAM FILES\MICROSOFT VISUAL STUDIO 10.0\VC\INCLUDE\XUTILITY
C:\PROGRAM FILES\MICROSOFT VISUAL STUDIO 10.0\VC\INCLUDE\UTILITY
C:\PROGRAM FILES\MICROSOFT VISUAL STUDIO 10.0\VC\INCLUDE\TYPE_TRAITS
C:\PROGRAM FILES\MICROSOFT VISUAL STUDIO 10.0\VC\INCLUDE\LIMITS
C:\PROGRAM FILES\MICROSOFT VISUAL STUDIO 10.0\VC\INCLUDE\YMATH.H
C:\PROGRAM FILES\MICROSOFT VISUAL STUDIO 10.0\VC\INCLUDE\CFLOAT
C:\PROGRAM FILES\MICROSOFT VISUAL STUDIO 10.0\VC\INCLUDE\FLOAT.H
C:\PROGRAM FILES\MICROSOFT VISUAL STUDIO 10.0\VC\INCLUDE\CRTWRN.H
C:\PROGRAM FILES\MICROSOFT VISUAL STUDIO 10.0\VC\INCLUDE\XTR1COMMON
C:\PROGRAM FILES\MICROSOFT VISUAL STUDIO 10.0\VC\INCLUDE\XFWRAP
C:\PROGRAM FILES\MICROSOFT VISUAL STUDIO 10.0\VC\INCLUDE\XFWRAP1
C:\PROGRAM FILES\MICROSOFT VISUAL STUDIO 10.0\VC\INCLUDE\XXTYPE_TRAITS
C:\PROGRAM FILES\MICROSOFT VISUAL STUDIO 10.0\VC\INCLUDE\XLOCINFO
C:\PROGRAM FILES\MICROSOFT VISUAL STUDIO 10.0\VC\INCLUDE\XLOCINFO.H
C:\PROGRAM FILES\MICROSOFT VISUAL STUDIO 10.0\VC\INCLUDE\CTYPE.H
C:\PROGRAM FILES\MICROSOFT VISUAL STUDIO 10.0\VC\INCLUDE\LOCALE.H
C:\PROGRAM FILES\MICROSOFT VISUAL STUDIO 10.0\VC\INCLUDE\XDEBUG
C:\PROGRAM FILES\MICROSOFT VISUAL STUDIO 10.0\VC\INCLUDE\SYSTEM_ERROR
C:\PROGRAM FILES\MICROSOFT VISUAL STUDIO 10.0\VC\INCLUDE\CERRNO
C:\PROGRAM FILES\MICROSOFT VISUAL STUDIO 10.0\VC\INCLUDE\ERRNO.H
C:\PROGRAM FILES\MICROSOFT VISUAL STUDIO 10.0\VC\INCLUDE\SHARE.H
D:\BOOST_1_57_0\BOOST\TEST\UTILS\BASIC_CSTRING\BASIC_CSTRING.HPP
D:\BOOST_1_57_0\BOOST\TEST\UTILS\BASIC_CSTRING\BASIC_CSTRING_FWD.HPP
D:\BOOST_1_57_0\BOOST\TEST\UTILS\BASIC_CSTRING\BCS_CHAR_TRAITS.HPP
D:\BOOST_1_57_0\BOOST\SHARED_PTR.HPP
D:\BOOST_1_57_0\BOOST\SMART_PTR\SHARED_PTR.HPP
D:\BOOST_1_57_0\BOOST\CONFIG\NO_TR1\MEMORY.HPP
C:\PROGRAM FILES\MICROSOFT VISUAL STUDIO 10.0\VC\INCLUDE\MEMORY
C:\PROGRAM FILES\MICROSOFT VISUAL STUDIO 10.0\VC\INCLUDE\INTRIN.H
C:\PROGRAM FILES\MICROSOFT VISUAL STUDIO 10.0\VC\INCLUDE\SETJMP.H
C:\PROGRAM FILES\MICROSOFT VISUAL STUDIO 10.0\VC\INCLUDE\IMMINTRIN.H
C:\PROGRAM FILES\MICROSOFT VISUAL STUDIO 10.0\VC\INCLUDE\WMMINTRIN.H
C:\PROGRAM FILES\MICROSOFT VISUAL STUDIO 10.0\VC\INCLUDE\NMMINTRIN.H
C:\PROGRAM FILES\MICROSOFT VISUAL STUDIO 10.0\VC\INCLUDE\SMMINTRIN.H
C:\PROGRAM FILES\MICROSOFT VISUAL STUDIO 10.0\VC\INCLUDE\TMMINTRIN.H
C:\PROGRAM FILES\MICROSOFT VISUAL STUDIO 10.0\VC\INCLUDE\PMMINTRIN.H
C:\PROGRAM FILES\MICROSOFT VISUAL STUDIO 10.0\VC\INCLUDE\EMMINTRIN.H
C:\PROGRAM FILES\MICROSOFT VISUAL STUDIO 10.0\VC\INCLUDE\XMMINTRIN.H
C:\PROGRAM FILES\MICROSOFT VISUAL STUDIO 10.0\VC\INCLUDE\MMINTRIN.H
C:\PROGRAM FILES\MICROSOFT VISUAL STUDIO 10.0\VC\INCLUDE\MM3DNOW.H
C:\PROGRAM FILES\MICROSOFT VISUAL STUDIO 10.0\VC\INCLUDE\XXSHARED
D:\BOOST_1_57_0\BOOST\ASSERT.HPP
C:\PROGRAM FILES\MICROSOFT VISUAL STUDIO 10.0\VC\INCLUDE\ASSERT.H
D:\BOOST_1_57_0\BOOST\CHECKED_DELETE.HPP
D:\BOOST_1_57_0\BOOST\CORE\CHECKED_DELETE.HPP
D:\BOOST_1_57_0\BOOST\THROW_EXCEPTION.HPP
D:\BOOST_1_57_0\BOOST\EXCEPTION\EXCEPTION.HPP
D:\BOOST_1_57_0\BOOST\CURRENT_FUNCTION.HPP
D:\BOOST_1_57_0\BOOST\SMART_PTR\DETAIL\SHARED_COUNT.HPP
D:\BOOST_1_57_0\BOOST\SMART_PTR\BAD_WEAK_PTR.HPP
D:\BOOST_1_57_0\BOOST\SMART_PTR\DETAIL\SP_COUNTED_BASE.HPP
D:\BOOST_1_57_0\BOOST\SMART_PTR\DETAIL\SP_HAS_SYNC.HPP
D:\BOOST_1_57_0\BOOST\SMART_PTR\DETAIL\SP_COUNTED_BASE_W32.HPP
D:\BOOST_1_57_0\BOOST\SMART_PTR\DETAIL\SP_INTERLOCKED.HPP
D:\BOOST_1_57_0\BOOST\DETAIL\SP_TYPEINFO.HPP
D:\BOOST_1_57_0\BOOST\CORE\TYPEINFO.HPP
D:\BOOST_1_57_0\BOOST\CORE\DEMANGLE.HPP
D:\BOOST_1_57_0\BOOST\SMART_PTR\DETAIL\SP_COUNTED_IMPL.HPP
C:\PROGRAM FILES\MICROSOFT VISUAL STUDIO 10.0\VC\INCLUDE\FUNCTIONAL
C:\PROGRAM FILES\MICROSOFT VISUAL STUDIO 10.0\VC\INCLUDE\XFUNCTIONAL
C:\PROGRAM FILES\MICROSOFT VISUAL STUDIO 10.0\VC\INCLUDE\XREFWRAP
C:\PROGRAM FILES\MICROSOFT VISUAL STUDIO 10.0\VC\INCLUDE\XXRESULT
C:\PROGRAM FILES\MICROSOFT VISUAL STUDIO 10.0\VC\INCLUDE\XXCALLOBJ
C:\PROGRAM FILES\MICROSOFT VISUAL STUDIO 10.0\VC\INCLUDE\XXPMFCALLER
C:\PROGRAM FILES\MICROSOFT VISUAL STUDIO 10.0\VC\INCLUDE\XXCALLPMF
C:\PROGRAM FILES\MICROSOFT VISUAL STUDIO 10.0\VC\INCLUDE\XXCALLFUN
C:\PROGRAM FILES\MICROSOFT VISUAL STUDIO 10.0\VC\INCLUDE\XAWRAP
C:\PROGRAM FILES\MICROSOFT VISUAL STUDIO 10.0\VC\INCLUDE\XXCALLWRAP
C:\PROGRAM FILES\MICROSOFT VISUAL STUDIO 10.0\VC\INCLUDE\XXREFWRAP
C:\PROGRAM FILES\MICROSOFT VISUAL STUDIO 10.0\VC\INCLUDE\XXMEM_FN
C:\PROGRAM FILES\MICROSOFT VISUAL STUDIO 10.0\VC\INCLUDE\XXFUNCTION
C:\PROGRAM FILES\MICROSOFT VISUAL STUDIO 10.0\VC\INCLUDE\XXBIND0
C:\PROGRAM FILES\MICROSOFT VISUAL STUDIO 10.0\VC\INCLUDE\XXBIND1
D:\BOOST_1_57_0\BOOST\SMART_PTR\DETAIL\SP_CONVERTIBLE.HPP
D:\BOOST_1_57_0\BOOST\SMART_PTR\DETAIL\SP_NULLPTR_T.HPP
D:\BOOST_1_57_0\BOOST\SMART_PTR\DETAIL\SPINLOCK_POOL.HPP
D:\BOOST_1_57_0\BOOST\SMART_PTR\DETAIL\SPINLOCK.HPP
D:\BOOST_1_57_0\BOOST\SMART_PTR\DETAIL\SPINLOCK_W32.HPP
D:\BOOST_1_57_0\BOOST\SMART_PTR\DETAIL\YIELD_K.HPP
D:\BOOST_1_57_0\BOOST\PREDEF.H
D:\BOOST_1_57_0\BOOST\PREDEF\LANGUAGE.H
D:\BOOST_1_57_0\BOOST\PREDEF\LANGUAGE\STDC.H
D:\BOOST_1_57_0\BOOST\PREDEF\VERSION_NUMBER.H
D:\BOOST_1_57_0\BOOST\PREDEF\MAKE.H
D:\BOOST_1_57_0\BOOST\PREDEF\DETAIL\TEST.H
D:\BOOST_1_57_0\BOOST\PREDEF\LANGUAGE\STDCPP.H
D:\BOOST_1_57_0\BOOST\PREDEF\LANGUAGE\OBJC.H
D:\BOOST_1_57_0\BOOST\PREDEF\ARCHITECTURE.H
D:\BOOST_1_57_0\BOOST\PREDEF\ARCHITECTURE\ALPHA.H
D:\BOOST_1_57_0\BOOST\PREDEF\ARCHITECTURE\ARM.H
D:\BOOST_1_57_0\BOOST\PREDEF\ARCHITECTURE\BLACKFIN.H
D:\BOOST_1_57_0\BOOST\PREDEF\ARCHITECTURE\CONVEX.H
D:\BOOST_1_57_0\BOOST\PREDEF\ARCHITECTURE\IA64.H
D:\BOOST_1_57_0\BOOST\PREDEF\ARCHITECTURE\M68K.H
D:\BOOST_1_57_0\BOOST\PREDEF\ARCHITECTURE\MIPS.H
D:\BOOST_1_57_0\BOOST\PREDEF\ARCHITECTURE\PARISC.H
D:\BOOST_1_57_0\BOOST\PREDEF\ARCHITECTURE\PPC.H
D:\BOOST_1_57_0\BOOST\PREDEF\ARCHITECTURE\PYRAMID.H
D:\BOOST_1_57_0\BOOST\PREDEF\ARCHITECTURE\RS6K.H
D:\BOOST_1_57_0\BOOST\PREDEF\ARCHITECTURE\SPARC.H
D:\BOOST_1_57_0\BOOST\PREDEF\ARCHITECTURE\SUPERH.H
D:\BOOST_1_57_0\BOOST\PREDEF\ARCHITECTURE\SYS370.H
D:\BOOST_1_57_0\BOOST\PREDEF\ARCHITECTURE\SYS390.H
D:\BOOST_1_57_0\BOOST\PREDEF\ARCHITECTURE\X86.H
D:\BOOST_1_57_0\BOOST\PREDEF\ARCHITECTURE\X86\32.H
D:\BOOST_1_57_0\BOOST\PREDEF\ARCHITECTURE\X86\64.H
D:\BOOST_1_57_0\BOOST\PREDEF\ARCHITECTURE\Z.H
D:\BOOST_1_57_0\BOOST\PREDEF\COMPILER.H
D:\BOOST_1_57_0\BOOST\PREDEF\COMPILER\BORLAND.H
D:\BOOST_1_57_0\BOOST\PREDEF\COMPILER\CLANG.H
D:\BOOST_1_57_0\BOOST\PREDEF\COMPILER\COMEAU.H
D:\BOOST_1_57_0\BOOST\PREDEF\COMPILER\COMPAQ.H
D:\BOOST_1_57_0\BOOST\PREDEF\COMPILER\DIAB.H
D:\BOOST_1_57_0\BOOST\PREDEF\COMPILER\DIGITALMARS.H
D:\BOOST_1_57_0\BOOST\PREDEF\COMPILER\DIGNUS.H
D:\BOOST_1_57_0\BOOST\PREDEF\COMPILER\EDG.H
D:\BOOST_1_57_0\BOOST\PREDEF\COMPILER\EKOPATH.H
D:\BOOST_1_57_0\BOOST\PREDEF\COMPILER\GCC_XML.H
D:\BOOST_1_57_0\BOOST\PREDEF\COMPILER\GCC.H
D:\BOOST_1_57_0\BOOST\PREDEF\COMPILER\GREENHILLS.H
D:\BOOST_1_57_0\BOOST\PREDEF\COMPILER\HP_ACC.H
D:\BOOST_1_57_0\BOOST\PREDEF\COMPILER\IAR.H
D:\BOOST_1_57_0\BOOST\PREDEF\COMPILER\IBM.H
D:\BOOST_1_57_0\BOOST\PREDEF\COMPILER\INTEL.H
D:\BOOST_1_57_0\BOOST\PREDEF\COMPILER\KAI.H
D:\BOOST_1_57_0\BOOST\PREDEF\COMPILER\LLVM.H
D:\BOOST_1_57_0\BOOST\PREDEF\COMPILER\METAWARE.H
D:\BOOST_1_57_0\BOOST\PREDEF\COMPILER\METROWERKS.H
D:\BOOST_1_57_0\BOOST\PREDEF\COMPILER\MICROTEC.H
D:\BOOST_1_57_0\BOOST\PREDEF\COMPILER\MPW.H
D:\BOOST_1_57_0\BOOST\PREDEF\COMPILER\PALM.H
D:\BOOST_1_57_0\BOOST\PREDEF\COMPILER\PGI.H
D:\BOOST_1_57_0\BOOST\PREDEF\COMPILER\SGI_MIPSPRO.H
D:\BOOST_1_57_0\BOOST\PREDEF\COMPILER\SUNPRO.H
D:\BOOST_1_57_0\BOOST\PREDEF\COMPILER\TENDRA.H
D:\BOOST_1_57_0\BOOST\PREDEF\COMPILER\VISUALC.H
D:\BOOST_1_57_0\BOOST\PREDEF\DETAIL\COMP_DETECTED.H
D:\BOOST_1_57_0\BOOST\PREDEF\COMPILER\WATCOM.H
D:\BOOST_1_57_0\BOOST\PREDEF\LIBRARY.H
D:\BOOST_1_57_0\BOOST\PREDEF\LIBRARY\C.H
D:\BOOST_1_57_0\BOOST\PREDEF\LIBRARY\C\_PREFIX.H
D:\BOOST_1_57_0\BOOST\PREDEF\DETAIL\_CASSERT.H
D:\BOOST_1_57_0\BOOST\PREDEF\LIBRARY\C\GNU.H
D:\BOOST_1_57_0\BOOST\PREDEF\LIBRARY\C\UC.H
D:\BOOST_1_57_0\BOOST\PREDEF\LIBRARY\C\VMS.H
D:\BOOST_1_57_0\BOOST\PREDEF\LIBRARY\C\ZOS.H
D:\BOOST_1_57_0\BOOST\PREDEF\LIBRARY\STD.H
D:\BOOST_1_57_0\BOOST\PREDEF\LIBRARY\STD\_PREFIX.H
D:\BOOST_1_57_0\BOOST\PREDEF\DETAIL\_EXCEPTION.H
D:\BOOST_1_57_0\BOOST\PREDEF\LIBRARY\STD\CXX.H
D:\BOOST_1_57_0\BOOST\PREDEF\LIBRARY\STD\DINKUMWARE.H
D:\BOOST_1_57_0\BOOST\PREDEF\LIBRARY\STD\LIBCOMO.H
D:\BOOST_1_57_0\BOOST\PREDEF\LIBRARY\STD\MODENA.H
D:\BOOST_1_57_0\BOOST\PREDEF\LIBRARY\STD\MSL.H
D:\BOOST_1_57_0\BOOST\PREDEF\LIBRARY\STD\ROGUEWAVE.H
D:\BOOST_1_57_0\BOOST\PREDEF\LIBRARY\STD\SGI.H
D:\BOOST_1_57_0\BOOST\PREDEF\LIBRARY\STD\STDCPP3.H
D:\BOOST_1_57_0\BOOST\PREDEF\LIBRARY\STD\STLPORT.H
D:\BOOST_1_57_0\BOOST\PREDEF\LIBRARY\STD\VACPP.H
D:\BOOST_1_57_0\BOOST\PREDEF\OS.H
D:\BOOST_1_57_0\BOOST\PREDEF\OS\AIX.H
D:\BOOST_1_57_0\BOOST\PREDEF\OS\AMIGAOS.H
D:\BOOST_1_57_0\BOOST\PREDEF\OS\ANDROID.H
D:\BOOST_1_57_0\BOOST\PREDEF\OS\BEOS.H
D:\BOOST_1_57_0\BOOST\PREDEF\OS\BSD.H
D:\BOOST_1_57_0\BOOST\PREDEF\OS\MACOS.H
D:\BOOST_1_57_0\BOOST\PREDEF\OS\IOS.H
D:\BOOST_1_57_0\BOOST\PREDEF\OS\BSD\BSDI.H
D:\BOOST_1_57_0\BOOST\PREDEF\OS\BSD\DRAGONFLY.H
D:\BOOST_1_57_0\BOOST\PREDEF\OS\BSD\FREE.H
D:\BOOST_1_57_0\BOOST\PREDEF\OS\BSD\OPEN.H
D:\BOOST_1_57_0\BOOST\PREDEF\OS\BSD\NET.H
D:\BOOST_1_57_0\BOOST\PREDEF\OS\CYGWIN.H
D:\BOOST_1_57_0\BOOST\PREDEF\OS\HPUX.H
D:\BOOST_1_57_0\BOOST\PREDEF\OS\IRIX.H
D:\BOOST_1_57_0\BOOST\PREDEF\OS\LINUX.H
D:\BOOST_1_57_0\BOOST\PREDEF\OS\OS400.H
D:\BOOST_1_57_0\BOOST\PREDEF\OS\QNXNTO.H
D:\BOOST_1_57_0\BOOST\PREDEF\OS\SOLARIS.H
D:\BOOST_1_57_0\BOOST\PREDEF\OS\UNIX.H
D:\BOOST_1_57_0\BOOST\PREDEF\OS\VMS.H
D:\BOOST_1_57_0\BOOST\PREDEF\OS\WINDOWS.H
D:\BOOST_1_57_0\BOOST\PREDEF\DETAIL\OS_DETECTED.H
D:\BOOST_1_57_0\BOOST\PREDEF\OTHER.H
D:\BOOST_1_57_0\BOOST\PREDEF\OTHER\ENDIAN.H
D:\BOOST_1_57_0\BOOST\PREDEF\PLATFORM.H
D:\BOOST_1_57_0\BOOST\PREDEF\PLATFORM\MINGW.H
D:\BOOST_1_57_0\BOOST\PREDEF\PLATFORM\WINDOWS_DESKTOP.H
D:\BOOST_1_57_0\BOOST\PREDEF\DETAIL\PLATFORM_DETECTED.H
D:\BOOST_1_57_0\BOOST\PREDEF\PLATFORM\WINDOWS_STORE.H
D:\BOOST_1_57_0\BOOST\PREDEF\PLATFORM\WINDOWS_PHONE.H
D:\BOOST_1_57_0\BOOST\PREDEF\PLATFORM\WINDOWS_RUNTIME.H
C:\PROGRAM FILES\MICROSOFT VISUAL STUDIO 10.0\VC\INCLUDE\ALGORITHM
D:\BOOST_1_57_0\BOOST\SMART_PTR\DETAIL\OPERATOR_BOOL.HPP
D:\BOOST_1_57_0\BOOST\TEST\UNIT_TEST_LOG.HPP
D:\BOOST_1_57_0\BOOST\TEST\TEST_OBSERVER.HPP
D:\BOOST_1_57_0\BOOST\TEST\DETAIL\FWD_DECL.HPP
D:\BOOST_1_57_0\BOOST\TEST\DETAIL\GLOBAL_TYPEDEF.HPP
D:\BOOST_1_57_0\BOOST\TEST\DETAIL\LOG_LEVEL.HPP
D:\BOOST_1_57_0\BOOST\TEST\UTILS\TRIVIAL_SINGLETON.HPP
D:\BOOST_1_57_0\BOOST\NONCOPYABLE.HPP
D:\BOOST_1_57_0\BOOST\CORE\NONCOPYABLE.HPP
D:\BOOST_1_57_0\BOOST\TEST\UTILS\LAZY_OSTREAM.HPP
D:\BOOST_1_57_0\BOOST\UTILITY.HPP
D:\BOOST_1_57_0\BOOST\UTILITY\BASE_FROM_MEMBER.HPP
D:\BOOST_1_57_0\BOOST\PREPROCESSOR\REPETITION\ENUM_BINARY_PARAMS.HPP
D:\BOOST_1_57_0\BOOST\PREPROCESSOR\REPETITION\ENUM_PARAMS.HPP
D:\BOOST_1_57_0\BOOST\PREPROCESSOR\REPETITION\REPEAT_FROM_TO.HPP
D:\BOOST_1_57_0\BOOST\PREPROCESSOR\ARITHMETIC\ADD.HPP
D:\BOOST_1_57_0\BOOST\PREPROCESSOR\CONTROL\WHILE.HPP
D:\BOOST_1_57_0\BOOST\PREPROCESSOR\LIST\FOLD_LEFT.HPP
D:\BOOST_1_57_0\BOOST\PREPROCESSOR\LIST\DETAIL\FOLD_LEFT.HPP
D:\BOOST_1_57_0\BOOST\PREPROCESSOR\CONTROL\EXPR_IIF.HPP
D:\BOOST_1_57_0\BOOST\PREPROCESSOR\LIST\ADT.HPP
D:\BOOST_1_57_0\BOOST\PREPROCESSOR\DETAIL\IS_BINARY.HPP
D:\BOOST_1_57_0\BOOST\PREPROCESSOR\DETAIL\CHECK.HPP
D:\BOOST_1_57_0\BOOST\PREPROCESSOR\LOGICAL\COMPL.HPP
D:\BOOST_1_57_0\BOOST\PREPROCESSOR\LIST\FOLD_RIGHT.HPP
D:\BOOST_1_57_0\BOOST\PREPROCESSOR\LIST\DETAIL\FOLD_RIGHT.HPP
D:\BOOST_1_57_0\BOOST\PREPROCESSOR\LIST\REVERSE.HPP
D:\BOOST_1_57_0\BOOST\PREPROCESSOR\LOGICAL\BITAND.HPP
D:\BOOST_1_57_0\BOOST\PREPROCESSOR\CONTROL\DETAIL\MSVC\WHILE.HPP
D:\BOOST_1_57_0\BOOST\PREPROCESSOR\ARITHMETIC\SUB.HPP
D:\BOOST_1_57_0\BOOST\UTILITY\ENABLE_IF.HPP
D:\BOOST_1_57_0\BOOST\CORE\ENABLE_IF.HPP
D:\BOOST_1_57_0\BOOST\UTILITY\BINARY.HPP
D:\BOOST_1_57_0\BOOST\PREPROCESSOR\CONTROL\DEDUCE_D.HPP
D:\BOOST_1_57_0\BOOST\PREPROCESSOR\FACILITIES\IDENTITY.HPP
D:\BOOST_1_57_0\BOOST\PREPROCESSOR\SEQ\CAT.HPP
D:\BOOST_1_57_0\BOOST\PREPROCESSOR\SEQ\FOLD_LEFT.HPP
D:\BOOST_1_57_0\BOOST\PREPROCESSOR\SEQ\TRANSFORM.HPP
D:\BOOST_1_57_0\BOOST\PREPROCESSOR\ARITHMETIC\MOD.HPP
D:\BOOST_1_57_0\BOOST\PREPROCESSOR\ARITHMETIC\DETAIL\DIV_BASE.HPP
D:\BOOST_1_57_0\BOOST\PREPROCESSOR\COMPARISON\LESS_EQUAL.HPP
D:\BOOST_1_57_0\BOOST\PREPROCESSOR\LOGICAL\NOT.HPP
D:\BOOST_1_57_0\BOOST\UTILITY\IDENTITY_TYPE.HPP
D:\BOOST_1_57_0\BOOST\TYPE_TRAITS\FUNCTION_TRAITS.HPP
D:\BOOST_1_57_0\BOOST\NEXT_PRIOR.HPP
C:\PROGRAM FILES\MICROSOFT VISUAL STUDIO 10.0\VC\INCLUDE\ITERATOR
D:\BOOST_1_57_0\BOOST\TYPE_TRAITS\IS_UNSIGNED.HPP
D:\BOOST_1_57_0\BOOST\TYPE_TRAITS\INTEGRAL_PROMOTION.HPP
D:\BOOST_1_57_0\BOOST\MPL\EVAL_IF.HPP
D:\BOOST_1_57_0\BOOST\MPL\IF.HPP
D:\BOOST_1_57_0\BOOST\MPL\AUX_\VALUE_WKND.HPP
D:\BOOST_1_57_0\BOOST\MPL\AUX_\CONFIG\INTEGRAL.HPP
D:\BOOST_1_57_0\BOOST\MPL\AUX_\CONFIG\ETI.HPP
D:\BOOST_1_57_0\BOOST\MPL\AUX_\NA_SPEC.HPP
D:\BOOST_1_57_0\BOOST\MPL\LAMBDA_FWD.HPP
D:\BOOST_1_57_0\BOOST\MPL\VOID_FWD.HPP
D:\BOOST_1_57_0\BOOST\MPL\AUX_\NA.HPP
D:\BOOST_1_57_0\BOOST\MPL\AUX_\NA_FWD.HPP
D:\BOOST_1_57_0\BOOST\MPL\AUX_\LAMBDA_ARITY_PARAM.HPP
D:\BOOST_1_57_0\BOOST\MPL\AUX_\ARITY.HPP
D:\BOOST_1_57_0\BOOST\MPL\AUX_\CONFIG\DTP.HPP
D:\BOOST_1_57_0\BOOST\MPL\AUX_\PREPROCESSOR\ENUM.HPP
D:\BOOST_1_57_0\BOOST\MPL\AUX_\PREPROCESSOR\DEF_PARAMS_TAIL.HPP
D:\BOOST_1_57_0\BOOST\MPL\LIMITS\ARITY.HPP
D:\BOOST_1_57_0\BOOST\PREPROCESSOR\LOGICAL\AND.HPP
D:\BOOST_1_57_0\BOOST\PREPROCESSOR\IDENTITY.HPP
D:\BOOST_1_57_0\BOOST\PREPROCESSOR\EMPTY.HPP
D:\BOOST_1_57_0\BOOST\MPL\IDENTITY.HPP
D:\BOOST_1_57_0\BOOST\TYPE_TRAITS\IS_CONST.HPP
D:\BOOST_1_57_0\BOOST\TYPE_TRAITS\IS_VOLATILE.HPP
D:\BOOST_1_57_0\BOOST\TYPE_TRAITS\MAKE_SIGNED.HPP
D:\BOOST_1_57_0\BOOST\TYPE_TRAITS\IS_SIGNED.HPP
D:\BOOST_1_57_0\BOOST\TYPE_TRAITS\ADD_VOLATILE.HPP
D:\BOOST_1_57_0\BOOST\STATIC_ASSERT.HPP
D:\BOOST_1_57_0\BOOST\TYPE_TRAITS\HAS_PLUS.HPP
D:\BOOST_1_57_0\BOOST\TYPE_TRAITS\DETAIL\HAS_BINARY_OPERATOR.HPP
D:\BOOST_1_57_0\BOOST\TYPE_TRAITS\IS_BASE_OF.HPP
D:\BOOST_1_57_0\BOOST\TYPE_TRAITS\IS_BASE_AND_DERIVED.HPP
D:\BOOST_1_57_0\BOOST\TYPE_TRAITS\IS_CLASS.HPP
D:\BOOST_1_57_0\BOOST\TYPE_TRAITS\IS_CONVERTIBLE.HPP
D:\BOOST_1_57_0\BOOST\TYPE_TRAITS\IS_FUNDAMENTAL.HPP
D:\BOOST_1_57_0\BOOST\TYPE_TRAITS\IS_VOID.HPP
D:\BOOST_1_57_0\BOOST\TYPE_TRAITS\REMOVE_POINTER.HPP
D:\BOOST_1_57_0\BOOST\TYPE_TRAITS\HAS_PLUS_ASSIGN.HPP
D:\BOOST_1_57_0\BOOST\TYPE_TRAITS\HAS_MINUS.HPP
D:\BOOST_1_57_0\BOOST\TYPE_TRAITS\HAS_MINUS_ASSIGN.HPP
D:\BOOST_1_57_0\BOOST\TEST\FLOATING_POINT_COMPARISON.HPP
D:\BOOST_1_57_0\BOOST\LIMITS.HPP
D:\BOOST_1_57_0\BOOST\NUMERIC\CONVERSION\CONVERSION_TRAITS.HPP
D:\BOOST_1_57_0\BOOST\NUMERIC\CONVERSION\DETAIL\CONVERSION_TRAITS.HPP
D:\BOOST_1_57_0\BOOST\NUMERIC\CONVERSION\DETAIL\META.HPP
D:\BOOST_1_57_0\BOOST\MPL\EQUAL_TO.HPP
D:\BOOST_1_57_0\BOOST\MPL\AUX_\COMPARISON_OP.HPP
D:\BOOST_1_57_0\BOOST\MPL\AUX_\NUMERIC_OP.HPP
D:\BOOST_1_57_0\BOOST\MPL\NUMERIC_CAST.HPP
D:\BOOST_1_57_0\BOOST\MPL\APPLY_WRAP.HPP
D:\BOOST_1_57_0\BOOST\MPL\AUX_\HAS_APPLY.HPP
D:\BOOST_1_57_0\BOOST\MPL\HAS_XXX.HPP
D:\BOOST_1_57_0\BOOST\MPL\AUX_\TYPE_WRAPPER.HPP
D:\BOOST_1_57_0\BOOST\MPL\AUX_\YES_NO.HPP
D:\BOOST_1_57_0\BOOST\MPL\AUX_\CONFIG\ARRAYS.HPP
D:\BOOST_1_57_0\BOOST\MPL\AUX_\CONFIG\HAS_XXX.HPP
D:\BOOST_1_57_0\BOOST\MPL\AUX_\CONFIG\MSVC_TYPENAME.HPP
D:\BOOST_1_57_0\BOOST\PREPROCESSOR\ARRAY\ELEM.HPP
D:\BOOST_1_57_0\BOOST\PREPROCESSOR\ARRAY\DATA.HPP
D:\BOOST_1_57_0\BOOST\PREPROCESSOR\ARRAY\SIZE.HPP
D:\BOOST_1_57_0\BOOST\PREPROCESSOR\REPETITION\ENUM_TRAILING_PARAMS.HPP
D:\BOOST_1_57_0\BOOST\MPL\AUX_\CONFIG\HAS_APPLY.HPP
D:\BOOST_1_57_0\BOOST\MPL\AUX_\MSVC_NEVER_TRUE.HPP
D:\BOOST_1_57_0\BOOST\MPL\AUX_\CONFIG\USE_PREPROCESSED.HPP
D:\BOOST_1_57_0\BOOST\MPL\AUX_\INCLUDE_PREPROCESSED.HPP
D:\BOOST_1_57_0\BOOST\MPL\AUX_\CONFIG\COMPILER.HPP
D:\BOOST_1_57_0\BOOST\PREPROCESSOR\STRINGIZE.HPP
D:\BOOST_1_57_0\BOOST\MPL\AUX_\PREPROCESSED\PLAIN\APPLY_WRAP.HPP
D:\BOOST_1_57_0\BOOST\MPL\TAG.HPP
D:\BOOST_1_57_0\BOOST\MPL\VOID.HPP
D:\BOOST_1_57_0\BOOST\MPL\AUX_\HAS_TAG.HPP
D:\BOOST_1_57_0\BOOST\MPL\AUX_\NUMERIC_CAST_UTILS.HPP
D:\BOOST_1_57_0\BOOST\MPL\AUX_\CONFIG\FORWARDING.HPP
D:\BOOST_1_57_0\BOOST\MPL\AUX_\MSVC_ETI_BASE.HPP
D:\BOOST_1_57_0\BOOST\MPL\AUX_\IS_MSVC_ETI_ARG.HPP
D:\BOOST_1_57_0\BOOST\MPL\AUX_\PREPROCESSED\PLAIN\EQUAL_TO.HPP
D:\BOOST_1_57_0\BOOST\MPL\NOT.HPP
D:\BOOST_1_57_0\BOOST\MPL\AUX_\NESTED_TYPE_WKND.HPP
D:\BOOST_1_57_0\BOOST\MPL\AND.HPP
D:\BOOST_1_57_0\BOOST\MPL\AUX_\PREPROCESSED\PLAIN\AND.HPP
D:\BOOST_1_57_0\BOOST\NUMERIC\CONVERSION\DETAIL\INT_FLOAT_MIXTURE.HPP
D:\BOOST_1_57_0\BOOST\NUMERIC\CONVERSION\INT_FLOAT_MIXTURE_ENUM.HPP
D:\BOOST_1_57_0\BOOST\NUMERIC\CONVERSION\DETAIL\SIGN_MIXTURE.HPP
D:\BOOST_1_57_0\BOOST\NUMERIC\CONVERSION\SIGN_MIXTURE_ENUM.HPP
D:\BOOST_1_57_0\BOOST\NUMERIC\CONVERSION\DETAIL\UDT_BUILTIN_MIXTURE.HPP
D:\BOOST_1_57_0\BOOST\NUMERIC\CONVERSION\UDT_BUILTIN_MIXTURE_ENUM.HPP
D:\BOOST_1_57_0\BOOST\NUMERIC\CONVERSION\DETAIL\IS_SUBRANGED.HPP
D:\BOOST_1_57_0\BOOST\MPL\MULTIPLIES.HPP
D:\BOOST_1_57_0\BOOST\MPL\TIMES.HPP
D:\BOOST_1_57_0\BOOST\MPL\AUX_\ARITHMETIC_OP.HPP
D:\BOOST_1_57_0\BOOST\MPL\AUX_\LARGEST_INT.HPP
D:\BOOST_1_57_0\BOOST\MPL\AUX_\PREPROCESSED\PLAIN\TIMES.HPP
D:\BOOST_1_57_0\BOOST\MPL\AUX_\PREPROCESSOR\DEFAULT_PARAMS.HPP
D:\BOOST_1_57_0\BOOST\MPL\LESS.HPP
D:\BOOST_1_57_0\BOOST\MPL\AUX_\PREPROCESSED\PLAIN\LESS.HPP
D:\BOOST_1_57_0\BOOST\TEST\DETAIL\WORKAROUND.HPP
D:\BOOST_1_57_0\BOOST\TEST\UTILS\BASIC_CSTRING\IO.HPP
D:\BOOST_1_57_0\BOOST\PREPROCESSOR\SEQ\ENUM.HPP
D:\BOOST_1_57_0\BOOST\TYPE_TRAITS\IS_ABSTRACT.HPP
D:\BOOST_1_57_0\BOOST\MPL\OR.HPP
D:\BOOST_1_57_0\BOOST\MPL\AUX_\PREPROCESSED\PLAIN\OR.HPP
D:\BOOST_1_57_0\BOOST\TEST\UNIT_TEST_SUITE.HPP
D:\BOOST_1_57_0\BOOST\TEST\UNIT_TEST_SUITE_IMPL.HPP
D:\BOOST_1_57_0\BOOST\TEST\UTILS\CALLBACK.HPP
D:\BOOST_1_57_0\BOOST\MPL\FOR_EACH.HPP
D:\BOOST_1_57_0\BOOST\MPL\IS_SEQUENCE.HPP
D:\BOOST_1_57_0\BOOST\MPL\BEGIN_END.HPP
D:\BOOST_1_57_0\BOOST\MPL\BEGIN_END_FWD.HPP
D:\BOOST_1_57_0\BOOST\MPL\AUX_\BEGIN_END_IMPL.HPP
D:\BOOST_1_57_0\BOOST\MPL\SEQUENCE_TAG_FWD.HPP
D:\BOOST_1_57_0\BOOST\MPL\AUX_\HAS_BEGIN.HPP
D:\BOOST_1_57_0\BOOST\MPL\AUX_\TRAITS_LAMBDA_SPEC.HPP
D:\BOOST_1_57_0\BOOST\MPL\SEQUENCE_TAG.HPP
D:\BOOST_1_57_0\BOOST\MPL\APPLY.HPP
D:\BOOST_1_57_0\BOOST\MPL\APPLY_FWD.HPP
D:\BOOST_1_57_0\BOOST\MPL\AUX_\PREPROCESSED\PLAIN\APPLY_FWD.HPP
D:\BOOST_1_57_0\BOOST\MPL\PLACEHOLDERS.HPP
D:\BOOST_1_57_0\BOOST\MPL\ARG.HPP
D:\BOOST_1_57_0\BOOST\MPL\ARG_FWD.HPP
D:\BOOST_1_57_0\BOOST\MPL\AUX_\NA_ASSERT.HPP
D:\BOOST_1_57_0\BOOST\MPL\ASSERT.HPP
D:\BOOST_1_57_0\BOOST\MPL\AUX_\CONFIG\GPU.HPP
D:\BOOST_1_57_0\BOOST\MPL\AUX_\CONFIG\PP_COUNTER.HPP
D:\BOOST_1_57_0\BOOST\MPL\AUX_\ARITY_SPEC.HPP
D:\BOOST_1_57_0\BOOST\MPL\AUX_\ARG_TYPEDEF.HPP
D:\BOOST_1_57_0\BOOST\MPL\AUX_\PREPROCESSED\PLAIN\ARG.HPP
D:\BOOST_1_57_0\BOOST\MPL\AUX_\PREPROCESSED\PLAIN\PLACEHOLDERS.HPP
D:\BOOST_1_57_0\BOOST\MPL\LAMBDA.HPP
D:\BOOST_1_57_0\BOOST\MPL\BIND.HPP
D:\BOOST_1_57_0\BOOST\MPL\BIND_FWD.HPP
D:\BOOST_1_57_0\BOOST\MPL\AUX_\CONFIG\BIND.HPP
D:\BOOST_1_57_0\BOOST\MPL\AUX_\PREPROCESSED\PLAIN\BIND_FWD.HPP
D:\BOOST_1_57_0\BOOST\MPL\NEXT.HPP
D:\BOOST_1_57_0\BOOST\MPL\NEXT_PRIOR.HPP
D:\BOOST_1_57_0\BOOST\MPL\AUX_\COMMON_NAME_WKND.HPP
D:\BOOST_1_57_0\BOOST\MPL\PROTECT.HPP
D:\BOOST_1_57_0\BOOST\MPL\AUX_\PREPROCESSED\PLAIN\BIND.HPP
D:\BOOST_1_57_0\BOOST\MPL\AUX_\FULL_LAMBDA.HPP
D:\BOOST_1_57_0\BOOST\MPL\QUOTE.HPP
D:\BOOST_1_57_0\BOOST\MPL\AUX_\HAS_TYPE.HPP
D:\BOOST_1_57_0\BOOST\MPL\AUX_\CONFIG\BCC.HPP
D:\BOOST_1_57_0\BOOST\MPL\AUX_\PREPROCESSED\PLAIN\QUOTE.HPP
D:\BOOST_1_57_0\BOOST\MPL\AUX_\TEMPLATE_ARITY.HPP
D:\BOOST_1_57_0\BOOST\MPL\AUX_\PREPROCESSED\PLAIN\TEMPLATE_ARITY.HPP
D:\BOOST_1_57_0\BOOST\MPL\AUX_\PREPROCESSED\PLAIN\FULL_LAMBDA.HPP
D:\BOOST_1_57_0\BOOST\MPL\AUX_\PREPROCESSED\PLAIN\APPLY.HPP
D:\BOOST_1_57_0\BOOST\MPL\DEREF.HPP
D:\BOOST_1_57_0\BOOST\MPL\AUX_\MSVC_TYPE.HPP
D:\BOOST_1_57_0\BOOST\MPL\AUX_\UNWRAP.HPP
D:\BOOST_1_57_0\BOOST\REF.HPP
D:\BOOST_1_57_0\BOOST\CORE\REF.HPP
D:\BOOST_1_57_0\BOOST\UTILITY\VALUE_INIT.HPP
D:\BOOST_1_57_0\BOOST\ALIGNED_STORAGE.HPP
D:\BOOST_1_57_0\BOOST\TYPE_TRAITS\ALIGNMENT_OF.HPP
D:\BOOST_1_57_0\BOOST\TYPE_TRAITS\DETAIL\SIZE_T_TRAIT_DEF.HPP
D:\BOOST_1_57_0\BOOST\MPL\SIZE_T.HPP
D:\BOOST_1_57_0\BOOST\MPL\SIZE_T_FWD.HPP
D:\BOOST_1_57_0\BOOST\TYPE_TRAITS\DETAIL\SIZE_T_TRAIT_UNDEF.HPP
D:\BOOST_1_57_0\BOOST\TYPE_TRAITS\TYPE_WITH_ALIGNMENT.HPP
D:\BOOST_1_57_0\BOOST\PREPROCESSOR\LIST\FOR_EACH_I.HPP
D:\BOOST_1_57_0\BOOST\PREPROCESSOR\TUPLE\TO_LIST.HPP
D:\BOOST_1_57_0\BOOST\PREPROCESSOR\LIST\TRANSFORM.HPP
D:\BOOST_1_57_0\BOOST\PREPROCESSOR\LIST\APPEND.HPP
D:\BOOST_1_57_0\BOOST\TYPE_TRAITS\IS_POD.HPP
D:\BOOST_1_57_0\BOOST\TYPE_TRAITS\IS_SCALAR.HPP
D:\BOOST_1_57_0\BOOST\TYPE_TRAITS\CV_TRAITS.HPP
D:\BOOST_1_57_0\BOOST\TYPE_TRAITS\ADD_CV.HPP
D:\BOOST_1_57_0\BOOST\TYPE_TRAITS\REMOVE_CONST.HPP
D:\BOOST_1_57_0\BOOST\TYPE_TRAITS\REMOVE_VOLATILE.HPP
D:\BOOST_1_57_0\BOOST\SWAP.HPP
D:\BOOST_1_57_0\BOOST\CORE\SWAP.HPP
D:\BOOST_1_57_0\BOOST\TYPE.HPP
C:\PROGRAM FILES\MICROSOFT VISUAL STUDIO 10.0\VC\INCLUDE\LIST
C:\PROGRAM FILES\MICROSOFT VISUAL STUDIO 10.0\VC\INCLUDE\VECTOR
D:\BOOST_1_57_0\BOOST\TEST\FRAMEWORK.HPP
D:\BOOST_1_57_0\BOOST\CONFIG\AUTO_LINK.HPP
D:\BOOST_1_57_0\BOOST\VERSION.HPP
^C:\USERS\ДАРЬЯ\DOCUMENTS\MUL_OF_LONGNUMBERS\TESTS\FUNCTION.CPP
C:\PROGRAM FILES\MICROSOFT VISUAL STUDIO 10.0\VC\BIN\1049\CLUI.DLL
C:\WINDOWS\GLOBALIZATION\SORTING\SORTDEFAULT.NLS
C:\WINDOWS\SYSTEM32\RSAENH.DLL
C:\WINDOWS\SYSTEM32\TZRES.DLL
C:\PROGRAM FILES\MICROSOFT VISUAL STUDIO 10.0\VC\INCLUDE\IOSTREAM
C:\PROGRAM FILES\MICROSOFT VISUAL STUDIO 10.0\VC\INCLUDE\ISTREAM
C:\PROGRAM FILES\MICROSOFT VISUAL STUDIO 10.0\VC\INCLUDE\OSTREAM
C:\PROGRAM FILES\MICROSOFT VISUAL STUDIO 10.0\VC\INCLUDE\IOS
C:\PROGRAM FILES\MICROSOFT VISUAL STUDIO 10.0\VC\INCLUDE\XLOCNUM
C:\PROGRAM FILES\MICROSOFT VISUAL STUDIO 10.0\VC\INCLUDE\CLIMITS
C:\PROGRAM FILES\MICROSOFT VISUAL STUDIO 10.0\VC\INCLUDE\YVALS.H
C:\PROGRAM FILES\MICROSOFT VISUAL STUDIO 10.0\VC\INCLUDE\CRTDEFS.H
C:\PROGRAM FILES\MICROSOFT VISUAL STUDIO 10.0\VC\INCLUDE\SAL.H
C:\PROGRAM FILES\MICROSOFT VISUAL STUDIO 10.0\VC\INCLUDE\CODEANALYSIS\SOURCEANNOTATIONS.H
C:\PROGRAM FILES\MICROSOFT VISUAL STUDIO 10.0\VC\INCLUDE\VADEFS.H
C:\PROGRAM FILES\MICROSOFT VISUAL STUDIO 10.0\VC\INCLUDE\USE_ANSI.H
C:\PROGRAM FILES\MICROSOFT VISUAL STUDIO 10.0\VC\INCLUDE\LIMITS.H
C:\PROGRAM FILES\MICROSOFT VISUAL STUDIO 10.0\VC\INCLUDE\CMATH
C:\PROGRAM FILES\MICROSOFT VISUAL STUDIO 10.0\VC\INCLUDE\MATH.H
C:\PROGRAM FILES\MICROSOFT VISUAL STUDIO 10.0\VC\INCLUDE\CSTDIO
C:\PROGRAM FILES\MICROSOFT VISUAL STUDIO 10.0\VC\INCLUDE\STDIO.H
C:\PROGRAM FILES\MICROSOFT VISUAL STUDIO 10.0\VC\INCLUDE\SWPRINTF.INL
C:\PROGRAM FILES\MICROSOFT VISUAL STUDIO 10.0\VC\INCLUDE\CSTDLIB
C:\PROGRAM FILES\MICROSOFT VISUAL STUDIO 10.0\VC\INCLUDE\STDLIB.H
C:\PROGRAM FILES\MICROSOFT VISUAL STUDIO 10.0\VC\INCLUDE\STREAMBUF
C:\PROGRAM FILES\MICROSOFT VISUAL STUDIO 10.0\VC\INCLUDE\XIOSBASE
C:\PROGRAM FILES\MICROSOFT VISUAL STUDIO 10.0\VC\INCLUDE\XLOCALE
C:\PROGRAM FILES\MICROSOFT VISUAL STUDIO 10.0\VC\INCLUDE\CSTRING
C:\PROGRAM FILES\MICROSOFT VISUAL STUDIO 10.0\VC\INCLUDE\STRING.H
C:\PROGRAM FILES\MICROSOFT VISUAL STUDIO 10.0\VC\INCLUDE\STDEXCEPT
C:\PROGRAM FILES\MICROSOFT VISUAL STUDIO 10.0\VC\INCLUDE\EXCEPTION
C:\PROGRAM FILES\MICROSOFT VISUAL STUDIO 10.0\VC\INCLUDE\XSTDDEF
C:\PROGRAM FILES\MICROSOFT VISUAL STUDIO 10.0\VC\INCLUDE\CSTDDEF
C:\PROGRAM FILES\MICROSOFT VISUAL STUDIO 10.0\VC\INCLUDE\STDDEF.H
C:\PROGRAM FILES\MICROSOFT VISUAL STUDIO 10.0\VC\INCLUDE\EH.H
C:\PROGRAM FILES\MICROSOFT VISUAL STUDIO 10.0\VC\INCLUDE\MALLOC.H
C:\PROGRAM FILES\MICROSOFT VISUAL STUDIO 10.0\VC\INCLUDE\XSTRING
C:\PROGRAM FILES\MICROSOFT VISUAL STUDIO 10.0\VC\INCLUDE\XMEMORY
C:\PROGRAM FILES\MICROSOFT VISUAL STUDIO 10.0\VC\INCLUDE\NEW
C:\PROGRAM FILES\MICROSOFT VISUAL STUDIO 10.0\VC\INCLUDE\XUTILITY
C:\PROGRAM FILES\MICROSOFT VISUAL STUDIO 10.0\VC\INCLUDE\UTILITY
C:\PROGRAM FILES\MICROSOFT VISUAL STUDIO 10.0\VC\INCLUDE\IOSFWD
C:\PROGRAM FILES\MICROSOFT VISUAL STUDIO 10.0\VC\INCLUDE\CWCHAR
C:\PROGRAM FILES\MICROSOFT VISUAL STUDIO 10.0\VC\INCLUDE\WCHAR.H
C:\PROGRAM FILES\MICROSOFT VISUAL STUDIO 10.0\VC\INCLUDE\WTIME.INL
C:\PROGRAM FILES\MICROSOFT VISUAL STUDIO 10.0\VC\INCLUDE\CRTDBG.H
C:\PROGRAM FILES\MICROSOFT VISUAL STUDIO 10.0\VC\INCLUDE\TYPE_TRAITS
C:\PROGRAM FILES\MICROSOFT VISUAL STUDIO 10.0\VC\INCLUDE\LIMITS
C:\PROGRAM FILES\MICROSOFT VISUAL STUDIO 10.0\VC\INCLUDE\YMATH.H
C:\PROGRAM FILES\MICROSOFT VISUAL STUDIO 10.0\VC\INCLUDE\CFLOAT
C:\PROGRAM FILES\MICROSOFT VISUAL STUDIO 10.0\VC\INCLUDE\FLOAT.H
C:\PROGRAM FILES\MICROSOFT VISUAL STUDIO 10.0\VC\INCLUDE\CRTWRN.H
C:\PROGRAM FILES\MICROSOFT VISUAL STUDIO 10.0\VC\INCLUDE\XTR1COMMON
C:\PROGRAM FILES\MICROSOFT VISUAL STUDIO 10.0\VC\INCLUDE\XFWRAP
C:\PROGRAM FILES\MICROSOFT VISUAL STUDIO 10.0\VC\INCLUDE\XFWRAP1
C:\PROGRAM FILES\MICROSOFT VISUAL STUDIO 10.0\VC\INCLUDE\XXTYPE_TRAITS
C:\PROGRAM FILES\MICROSOFT VISUAL STUDIO 10.0\VC\INCLUDE\TYPEINFO
C:\PROGRAM FILES\MICROSOFT VISUAL STUDIO 10.0\VC\INCLUDE\XLOCINFO
C:\PROGRAM FILES\MICROSOFT VISUAL STUDIO 10.0\VC\INCLUDE\XLOCINFO.H
C:\PROGRAM FILES\MICROSOFT VISUAL STUDIO 10.0\VC\INCLUDE\CTYPE.H
C:\PROGRAM FILES\MICROSOFT VISUAL STUDIO 10.0\VC\INCLUDE\LOCALE.H
C:\PROGRAM FILES\MICROSOFT VISUAL STUDIO 10.0\VC\INCLUDE\XDEBUG
C:\PROGRAM FILES\MICROSOFT VISUAL STUDIO 10.0\VC\INCLUDE\SYSTEM_ERROR
C:\PROGRAM FILES\MICROSOFT VISUAL STUDIO 10.0\VC\INCLUDE\CERRNO
C:\PROGRAM FILES\MICROSOFT VISUAL STUDIO 10.0\VC\INCLUDE\ERRNO.H
C:\PROGRAM FILES\MICROSOFT VISUAL STUDIO 10.0\VC\INCLUDE\SHARE.H
C:\USERS\дарья\DOCUMENTS\MUL_OF_LONGNUMBERS\TESTS\FUNCTIONS.H
