^C:\USERS\ДАРЬЯ\DOCUMENTS\MUL_OF_LONGNUMBERS\TESTS\FUNCTION.CPP|C:\USERS\ДАРЬЯ\DOCUMENTS\MUL_OF_LONGNUMBERS\TESTS\FUNCTIONS TEST.CPP|C:\USERS\ДАРЬЯ\DOCUMENTS\MUL_OF_LONGNUMBERS\TESTS\MAINTEST.CPP|C:\USERS\ДАРЬЯ\DOCUMENTS\MUL_OF_LONGNUMBERS\TESTS\STDAFX.CPP
C:\USERS\Дарья\DOCUMENTS\MUL_OF_LONGNUMBERS\TESTS\UNITTESTS\STDAFX.OBJ
C:\USERS\Дарья\DOCUMENTS\MUL_OF_LONGNUMBERS\TESTS\UNITTESTS\MAINTEST.OBJ
C:\USERS\Дарья\DOCUMENTS\MUL_OF_LONGNUMBERS\TESTS\UNITTESTS\FUNCTIONS TEST.OBJ
C:\USERS\Дарья\DOCUMENTS\MUL_OF_LONGNUMBERS\TESTS\UNITTESTS\FUNCTION.OBJ
^C:\USERS\ДАРЬЯ\DOCUMENTS\MUL_OF_LONGNUMBERS\TESTS\FUNCTION.CPP|C:\USERS\ДАРЬЯ\DOCUMENTS\MUL_OF_LONGNUMBERS\TESTS\FUNCTIONS TEST.CPP|C:\USERS\ДАРЬЯ\DOCUMENTS\MUL_OF_LONGNUMBERS\TESTS\STDAFX.CPP
C:\USERS\Дарья\DOCUMENTS\MUL_OF_LONGNUMBERS\TESTS\UNITTESTS\STDAFX.OBJ
C:\USERS\Дарья\DOCUMENTS\MUL_OF_LONGNUMBERS\TESTS\UNITTESTS\FUNCTIONS TEST.OBJ
C:\USERS\Дарья\DOCUMENTS\MUL_OF_LONGNUMBERS\TESTS\UNITTESTS\FUNCTION.OBJ
^C:\USERS\ДАРЬЯ\DOCUMENTS\MUL_OF_LONGNUMBERS\TESTS\STDAFX.CPP
C:\USERS\Дарья\DOCUMENTS\MUL_OF_LONGNUMBERS\TESTS\UNITTESTS\STDAFX.OBJ
C:\USERS\ДАРЬЯ\DOCUMENTS\MUL_OF_LONGNUMBERS\TESTS\UNITTESTS\VC100.PDB
^C:\USERS\ДАРЬЯ\DOCUMENTS\MUL_OF_LONGNUMBERS\TESTS\FUNCTION.CPP|C:\USERS\ДАРЬЯ\DOCUMENTS\MUL_OF_LONGNUMBERS\TESTS\FUNCTIONS TEST.CPP|C:\USERS\ДАРЬЯ\DOCUMENTS\MUL_OF_LONGNUMBERS\TESTS\MAINTEST.CPP
C:\USERS\Дарья\DOCUMENTS\MUL_OF_LONGNUMBERS\TESTS\UNITTESTS\MAINTEST.OBJ
C:\USERS\Дарья\DOCUMENTS\MUL_OF_LONGNUMBERS\TESTS\UNITTESTS\FUNCTIONS TEST.OBJ
C:\USERS\Дарья\DOCUMENTS\MUL_OF_LONGNUMBERS\TESTS\UNITTESTS\FUNCTION.OBJ
^C:\USERS\ДАРЬЯ\DOCUMENTS\MUL_OF_LONGNUMBERS\TESTS\FUNCTIONS TEST.CPP|C:\USERS\ДАРЬЯ\DOCUMENTS\MUL_OF_LONGNUMBERS\TESTS\MAINTEST.CPP
C:\USERS\Дарья\DOCUMENTS\MUL_OF_LONGNUMBERS\TESTS\UNITTESTS\MAINTEST.OBJ
C:\USERS\Дарья\DOCUMENTS\MUL_OF_LONGNUMBERS\TESTS\UNITTESTS\FUNCTIONS TEST.OBJ
^C:\USERS\ДАРЬЯ\DOCUMENTS\MUL_OF_LONGNUMBERS\TESTS\MAINTEST.CPP
C:\USERS\Дарья\DOCUMENTS\MUL_OF_LONGNUMBERS\TESTS\UNITTESTS\MAINTEST.OBJ
C:\USERS\ДАРЬЯ\DOCUMENTS\MUL_OF_LONGNUMBERS\TESTS\UNITTESTS\VC100.PDB
^C:\USERS\ДАРЬЯ\DOCUMENTS\MUL_OF_LONGNUMBERS\TESTS\FUNCTION.CPP|C:\USERS\ДАРЬЯ\DOCUMENTS\MUL_OF_LONGNUMBERS\TESTS\FUNCTIONS TEST.CPP
C:\USERS\Дарья\DOCUMENTS\MUL_OF_LONGNUMBERS\TESTS\UNITTESTS\FUNCTIONS TEST.OBJ
C:\USERS\Дарья\DOCUMENTS\MUL_OF_LONGNUMBERS\TESTS\UNITTESTS\FUNCTION.OBJ
^C:\USERS\ДАРЬЯ\DOCUMENTS\MUL_OF_LONGNUMBERS\TESTS\FUNCTIONS TEST.CPP
C:\USERS\Дарья\DOCUMENTS\MUL_OF_LONGNUMBERS\TESTS\UNITTESTS\FUNCTIONS TEST.OBJ
C:\USERS\ДАРЬЯ\DOCUMENTS\MUL_OF_LONGNUMBERS\TESTS\UNITTESTS\VC100.PDB
^C:\USERS\ДАРЬЯ\DOCUMENTS\MUL_OF_LONGNUMBERS\TESTS\FUNCTION.CPP
C:\USERS\Дарья\DOCUMENTS\MUL_OF_LONGNUMBERS\TESTS\UNITTESTS\FUNCTION.OBJ
C:\USERS\ДАРЬЯ\DOCUMENTS\MUL_OF_LONGNUMBERS\TESTS\UNITTESTS\VC100.PDB
