^C:\USERS\ДАРЬЯ\DOCUMENTS\MUL_OF_LONGNUMBERS\TESTS\UNITTESTS\FUNCTION.OBJ|C:\USERS\ДАРЬЯ\DOCUMENTS\MUL_OF_LONGNUMBERS\TESTS\UNITTESTS\FUNCTIONS TEST.OBJ|C:\USERS\ДАРЬЯ\DOCUMENTS\MUL_OF_LONGNUMBERS\TESTS\UNITTESTS\MAINTEST.OBJ|C:\USERS\ДАРЬЯ\DOCUMENTS\MUL_OF_LONGNUMBERS\TESTS\UNITTESTS\STDAFX.OBJ
/ERRORREPORT:PROMPT /OUT:"C:\Users\Дарья\Documents\mul_of_longnumbers\Tests\UnitTests\Tests.exe" /NOLOGO kernel32.lib user32.lib gdi32.lib winspool.lib comdlg32.lib advapi32.lib shell32.lib ole32.lib oleaut32.lib uuid.lib odbc32.lib odbccp32.lib /MANIFEST /ManifestFile:"UnitTests\Tests.exe.intermediate.manifest" /MANIFESTUAC:"level='asInvoker' uiAccess='false'" /PDB:"C:\Users\Дарья\Documents\mul_of_longnumbers\Tests\UnitTests\Tests.pdb" /SUBSYSTEM:CONSOLE /TLBID:1 /DYNAMICBASE /NXCOMPAT /IMPLIB:"C:\Users\Дарья\Documents\mul_of_longnumbers\Tests\UnitTests\Tests.lib" /MACHINE:X86 UnitTests\function.obj
"UnitTests\functions Test.obj"
UnitTests\maintest.obj
UnitTests\stdafx.obj
