^C:\USERS\ДАРЬЯ\DOCUMENTS\MUL_OF_LONGNUMBERS\TESTS\UNITTESTS\FUNCTION.OBJ|C:\USERS\ДАРЬЯ\DOCUMENTS\MUL_OF_LONGNUMBERS\TESTS\UNITTESTS\FUNCTIONS TEST.OBJ|C:\USERS\ДАРЬЯ\DOCUMENTS\MUL_OF_LONGNUMBERS\TESTS\UNITTESTS\MAINTEST.OBJ|C:\USERS\ДАРЬЯ\DOCUMENTS\MUL_OF_LONGNUMBERS\TESTS\UNITTESTS\STDAFX.OBJ
C:\PROGRAM FILES\MICROSOFT SDKS\WINDOWS\V7.0A\LIB\KERNEL32.LIB
C:\PROGRAM FILES\MICROSOFT SDKS\WINDOWS\V7.0A\LIB\USER32.LIB
C:\PROGRAM FILES\MICROSOFT SDKS\WINDOWS\V7.0A\LIB\GDI32.LIB
C:\PROGRAM FILES\MICROSOFT SDKS\WINDOWS\V7.0A\LIB\WINSPOOL.LIB
C:\PROGRAM FILES\MICROSOFT SDKS\WINDOWS\V7.0A\LIB\COMDLG32.LIB
C:\PROGRAM FILES\MICROSOFT SDKS\WINDOWS\V7.0A\LIB\ADVAPI32.LIB
C:\PROGRAM FILES\MICROSOFT SDKS\WINDOWS\V7.0A\LIB\SHELL32.LIB
C:\PROGRAM FILES\MICROSOFT SDKS\WINDOWS\V7.0A\LIB\OLE32.LIB
C:\PROGRAM FILES\MICROSOFT SDKS\WINDOWS\V7.0A\LIB\OLEAUT32.LIB
C:\PROGRAM FILES\MICROSOFT SDKS\WINDOWS\V7.0A\LIB\UUID.LIB
C:\PROGRAM FILES\MICROSOFT SDKS\WINDOWS\V7.0A\LIB\ODBC32.LIB
C:\PROGRAM FILES\MICROSOFT SDKS\WINDOWS\V7.0A\LIB\ODBCCP32.LIB
C:\USERS\Дарья\DOCUMENTS\MUL_OF_LONGNUMBERS\TESTS\UNITTESTS\FUNCTION.OBJ
C:\USERS\Дарья\DOCUMENTS\MUL_OF_LONGNUMBERS\TESTS\UNITTESTS\FUNCTIONS TEST.OBJ
C:\USERS\Дарья\DOCUMENTS\MUL_OF_LONGNUMBERS\TESTS\UNITTESTS\MAINTEST.OBJ
C:\USERS\Дарья\DOCUMENTS\MUL_OF_LONGNUMBERS\TESTS\UNITTESTS\STDAFX.OBJ
C:\WINDOWS\GLOBALIZATION\SORTING\SORTDEFAULT.NLS
C:\PROGRAM FILES\MICROSOFT VISUAL STUDIO 10.0\VC\LIB\MSVCPRTD.LIB
C:\PROGRAM FILES\MICROSOFT VISUAL STUDIO 10.0\VC\LIB\MSVCRTD.LIB
C:\PROGRAM FILES\MICROSOFT VISUAL STUDIO 10.0\VC\LIB\OLDNAMES.LIB
D:\BOOST_1_57_0\STAGE\LIB\LIBBOOST_UNIT_TEST_FRAMEWORK-VC100-MT-GD-1_57.LIB
C:\WINDOWS\SYSTEM32\TZRES.DLL
